Derek_experiment/data/notch_600khz0.csv

CH1V,CH2V,t0 =-4.880000e-05, tInc = 1.000000e-07,
-2.685333e-01,+1.560000e-02,,
-2.676133e-01,+8.666667e-03,,
-2.687600e-01,+2.933333e-02,,
-2.683066e-01,+4.133333e-03,,
-2.669066e-01,+2.240000e-02,,
-2.673733e-01,+6.400000e-03,,
-2.673733e-01,+2.706667e-02,,
-2.669066e-01,+2.480000e-02,,
-2.687600e-01,+3.160000e-02,,
-2.669066e-01,+2.933333e-02,,
-2.685333e-01,+5.453333e-02,,
-2.696933e-01,+2.480000e-02,,
-2.694666e-01,+4.760000e-02,,
-2.680666e-01,+3.613333e-02,,
-2.690000e-01,+5.680000e-02,,
-2.676133e-01,+4.760000e-02,,
-2.690000e-01,+6.826667e-02,,
-2.669066e-01,+6.133333e-02,,
-2.676133e-01,+6.826667e-02,,
-2.666800e-01,+7.960000e-02,,
-2.694666e-01,+7.053334e-02,,
-2.680666e-01,+8.880000e-02,,
-2.694666e-01,+7.960000e-02,,
-2.690000e-01,+7.506667e-02,,
-2.690000e-01,+9.800000e-02,,
-2.706133e-01,+9.333333e-02,,
-2.687600e-01,+1.070667e-01,,
-2.680666e-01,+9.560000e-02,,
-2.696933e-01,+1.048000e-01,,
-2.680666e-01,+1.093333e-01,,
-2.696933e-01,+1.116000e-01,,
-2.703866e-01,+9.800000e-02,,
-2.701600e-01,+1.208000e-01,,
-2.701600e-01,+1.368000e-01,,
-2.703866e-01,+1.208000e-01,,
-2.701600e-01,+1.093333e-01,,
-2.706133e-01,+1.414667e-01,,
-2.703866e-01,+1.368000e-01,,
-2.696933e-01,+1.482667e-01,,
-2.694666e-01,+1.414667e-01,,
-2.708533e-01,+1.597333e-01,,
-2.708533e-01,+1.574667e-01,,
-2.717733e-01,+1.597333e-01,,
-2.717733e-01,+1.574667e-01,,
-2.713200e-01,+1.597333e-01,,
-2.699200e-01,+1.597333e-01,,
-2.699200e-01,+1.757333e-01,,
-2.699200e-01,+1.597333e-01,,
-2.713200e-01,+1.894667e-01,,
-2.710800e-01,+1.802667e-01,,
-2.708533e-01,+1.962667e-01,,
-2.708533e-01,+1.940000e-01,,
-2.724667e-01,+2.077333e-01,,
-2.717733e-01,+1.917333e-01,,
-2.722400e-01,+2.077333e-01,,
-2.720133e-01,+1.985333e-01,,
-2.696933e-01,+2.146667e-01,,
-2.710800e-01,+2.100000e-01,,
-2.701600e-01,+2.146667e-01,,
-2.699200e-01,+2.169333e-01,,
-2.715467e-01,+2.146667e-01,,
-2.706133e-01,+2.260000e-01,,
-2.724667e-01,+2.192000e-01,,
-2.727067e-01,+2.192000e-01,,
-2.724667e-01,+2.352000e-01,,
-2.734000e-01,+2.260000e-01,,
-2.731733e-01,+2.580000e-01,,
-2.694666e-01,+2.466667e-01,,
-2.706133e-01,+2.420000e-01,,
-2.703866e-01,+2.512000e-01,,
-2.720133e-01,+2.626667e-01,,
-2.720133e-01,+2.466667e-01,,
-2.724667e-01,+2.764000e-01,,
-2.727067e-01,+2.694667e-01,,
-2.734000e-01,+2.832000e-01,,
-2.740933e-01,+2.580000e-01,,
-2.731733e-01,+2.809334e-01,,
-2.720133e-01,+2.786667e-01,,
-2.731733e-01,+2.854667e-01,,
-2.717733e-01,+2.901333e-01,,
-2.731733e-01,+2.854667e-01,,
-2.724667e-01,+3.014667e-01,,
-2.738667e-01,+3.106667e-01,,
-2.738667e-01,+2.992000e-01,,
-2.752533e-01,+2.992000e-01,,
-2.743200e-01,+3.106667e-01,,
-2.736267e-01,+3.221333e-01,,
-2.727067e-01,+3.176000e-01,,
-2.734000e-01,+3.221333e-01,,
-2.743200e-01,+3.198667e-01,,
-2.731733e-01,+3.336000e-01,,
-2.720133e-01,+3.244000e-01,,
-2.717733e-01,+3.496000e-01,,
-2.743200e-01,+3.426667e-01,,
-2.752533e-01,+3.473333e-01,,
-2.752533e-01,+3.312000e-01,,
-2.747867e-01,+3.449333e-01,,
-2.752533e-01,+3.541333e-01,,
-2.745600e-01,+3.610667e-01,,
-2.738667e-01,+3.586667e-01,,
-2.731733e-01,+3.518667e-01,,
-2.727067e-01,+3.518667e-01,,
-2.731733e-01,+3.656000e-01,,
-2.745600e-01,+3.724000e-01,,
-2.738667e-01,+3.838667e-01,,
-2.750266e-01,+3.793333e-01,,
-2.750266e-01,+3.908000e-01,,
-2.764133e-01,+3.816000e-01,,
-2.736267e-01,+3.976000e-01,,
-2.745600e-01,+3.976000e-01,,
-2.729333e-01,+4.090667e-01,,
-2.740933e-01,+4.113334e-01,,
-2.740933e-01,+4.021333e-01,,
-2.750266e-01,+4.158667e-01,,
-2.759466e-01,+4.113334e-01,,
-2.768800e-01,+4.136000e-01,,
-2.766400e-01,+4.136000e-01,,
-2.750266e-01,+4.113334e-01,,
-2.745600e-01,+4.228000e-01,,
-2.738667e-01,+4.205333e-01,,
-2.738667e-01,+4.433333e-01,,
-2.731733e-01,+4.296000e-01,,
-2.747867e-01,+4.456000e-01,,
-2.734000e-01,+4.365333e-01,,
-2.754800e-01,+4.525333e-01,,
-2.768800e-01,+4.525333e-01,,
-2.757200e-01,+4.616000e-01,,
-2.761733e-01,+4.548000e-01,,
-2.771066e-01,+4.662667e-01,,
-2.757200e-01,+4.478667e-01,,
-2.754800e-01,+4.753333e-01,,
-2.745600e-01,+4.525333e-01,,
-2.759466e-01,+4.662667e-01,,
-2.745600e-01,+4.822667e-01,,
-2.773333e-01,+4.662667e-01,,
-2.782666e-01,+4.730667e-01,,
-2.778000e-01,+4.982667e-01,,
-2.757200e-01,+4.845333e-01,,
-2.775733e-01,+4.913333e-01,,
-2.757200e-01,+4.937333e-01,,
-2.754800e-01,+5.050667e-01,,
-2.761733e-01,+4.937333e-01,,
-2.759466e-01,+5.028000e-01,,
-2.764133e-01,+5.165333e-01,,
-2.775733e-01,+5.280000e-01,,
-2.778000e-01,+5.142667e-01,,
-2.778000e-01,+5.280000e-01,,
-2.773333e-01,+5.097333e-01,,
-2.782666e-01,+5.165333e-01,,
-2.768800e-01,+5.302667e-01,,
-2.780266e-01,+5.280000e-01,,
-2.764133e-01,+5.417333e-01,,
-2.766400e-01,+5.372000e-01,,
-2.764133e-01,+5.394667e-01,,
-2.759466e-01,+5.417333e-01,,
-2.782666e-01,+5.348000e-01,,
-2.778000e-01,+5.554667e-01,,
-2.782666e-01,+5.508000e-01,,
-2.778000e-01,+5.692000e-01,,
-2.768800e-01,+5.692000e-01,,
-2.780266e-01,+5.622666e-01,,
-2.750266e-01,+5.554667e-01,,
-2.768800e-01,+5.760000e-01,,
-2.759466e-01,+5.669333e-01,,
-2.764133e-01,+5.737333e-01,,
-2.778000e-01,+5.782667e-01,,
-2.780266e-01,+5.782667e-01,,
-2.789600e-01,+5.737333e-01,,
-2.782666e-01,+5.760000e-01,,
-2.782666e-01,+5.920000e-01,,
-2.775733e-01,+5.874667e-01,,
-2.764133e-01,+6.034667e-01,,
-2.766400e-01,+5.966667e-01,,
-2.754800e-01,+6.172000e-01,,
-2.764133e-01,+6.034667e-01,,
-2.761733e-01,+6.034667e-01,,
-2.745600e-01,+6.034667e-01,,
-2.752533e-01,+6.332000e-01,,
-2.759466e-01,+6.264000e-01,,
-2.727067e-01,+6.172000e-01,,
-2.738667e-01,+6.149333e-01,,
-2.724667e-01,+6.332000e-01,,
-2.724667e-01,+6.217334e-01,,
-2.722400e-01,+6.354667e-01,,
-2.715467e-01,+6.377333e-01,,
-2.717733e-01,+6.354667e-01,,
-2.724667e-01,+6.492000e-01,,
-2.734000e-01,+6.264000e-01,,
-2.731733e-01,+6.401333e-01,,
-2.729333e-01,+6.469333e-01,,
-2.752533e-01,+6.514667e-01,,
-2.731733e-01,+6.514667e-01,,
-2.713200e-01,+6.652000e-01,,
-2.708533e-01,+6.514667e-01,,
-2.717733e-01,+6.629333e-01,,
-2.734000e-01,+6.629333e-01,,
-2.731733e-01,+6.789333e-01,,
-2.752533e-01,+6.629333e-01,,
-2.754800e-01,+6.652000e-01,,
-2.773333e-01,+6.561334e-01,,
-2.771066e-01,+6.836000e-01,,
-2.771066e-01,+6.812000e-01,,
-2.764133e-01,+6.996000e-01,,
-2.740933e-01,+6.789333e-01,,
-2.754800e-01,+6.789333e-01,,
-2.745600e-01,+6.996000e-01,,
-2.759466e-01,+6.972000e-01,,
-2.761733e-01,+6.881334e-01,,
-2.778000e-01,+6.972000e-01,,
-2.789600e-01,+7.041333e-01,,
-2.787333e-01,+7.201334e-01,,
-2.789600e-01,+6.949334e-01,,
-2.780266e-01,+7.109333e-01,,
-2.764133e-01,+7.109333e-01,,
-2.764133e-01,+7.201334e-01,,
-2.766400e-01,+7.293333e-01,,
-2.747867e-01,+7.338667e-01,,
-2.766400e-01,+7.201334e-01,,
-2.768800e-01,+7.338667e-01,,
-2.773333e-01,+7.293333e-01,,
-2.773333e-01,+7.338667e-01,,
-2.759466e-01,+7.338667e-01,,
-2.778000e-01,+7.338667e-01,,
-2.738667e-01,+7.384000e-01,,
-2.752533e-01,+7.544000e-01,,
-2.715467e-01,+7.406667e-01,,
-2.720133e-01,+7.544000e-01,,
-2.680666e-01,+7.406667e-01,,
-2.696933e-01,+7.498667e-01,,
-2.694666e-01,+7.430667e-01,,
-2.706133e-01,+7.681333e-01,,
-2.703866e-01,+7.568000e-01,,
-2.694666e-01,+7.590667e-01,,
-2.678400e-01,+7.636000e-01,,
-2.676133e-01,+7.796000e-01,,
-2.662133e-01,+7.590667e-01,,
-2.664533e-01,+7.796000e-01,,
-2.671466e-01,+7.613333e-01,,
-2.680666e-01,+7.818667e-01,,
-2.701600e-01,+7.773333e-01,,
-2.701600e-01,+7.888000e-01,,
-2.713200e-01,+7.888000e-01,,
-2.706133e-01,+7.888000e-01,,
-2.687600e-01,+7.865334e-01,,
-2.690000e-01,+7.865334e-01,,
-2.683066e-01,+8.048000e-01,,
-2.673733e-01,+8.002667e-01,,
-2.685333e-01,+7.956000e-01,,
-2.706133e-01,+8.093333e-01,,
-2.708533e-01,+7.956000e-01,,
-2.727067e-01,+8.002667e-01,,
-2.734000e-01,+8.002667e-01,,
-2.740933e-01,+8.116000e-01,,
-2.736267e-01,+8.162667e-01,,
-2.727067e-01,+8.185334e-01,,
-2.710800e-01,+8.162667e-01,,
-2.722400e-01,+8.208000e-01,,
-2.708533e-01,+8.230667e-01,,
-2.708533e-01,+8.185334e-01,,
-2.727067e-01,+8.185334e-01,,
-2.724667e-01,+8.390667e-01,,
-2.731733e-01,+8.322667e-01,,
-2.743200e-01,+8.138667e-01,,
-2.724667e-01,+8.345333e-01,,
-2.727067e-01,+8.436000e-01,,
-2.703866e-01,+8.390667e-01,,
-2.703866e-01,+8.460000e-01,,
-2.708533e-01,+8.300000e-01,,
-2.713200e-01,+8.322667e-01,,
-2.720133e-01,+8.345333e-01,,
-2.713200e-01,+8.528000e-01,,
-2.710800e-01,+8.436000e-01,,
-2.724667e-01,+8.597333e-01,,
-2.706133e-01,+8.573334e-01,,
-2.699200e-01,+8.550667e-01,,
-2.706133e-01,+8.528000e-01,,
-2.690000e-01,+8.597333e-01,,
-2.676133e-01,+8.665333e-01,,
-2.673733e-01,+8.688000e-01,,
-2.666800e-01,+8.642667e-01,,
-2.669066e-01,+8.620000e-01,,
-2.678400e-01,+8.710667e-01,,
-2.671466e-01,+8.688000e-01,,
-2.694666e-01,+8.734667e-01,,
-2.694666e-01,+8.734667e-01,,
-2.683066e-01,+8.665333e-01,,
-2.685333e-01,+8.802667e-01,,
-2.662133e-01,+8.688000e-01,,
-2.652933e-01,+8.848000e-01,,
-2.673733e-01,+8.848000e-01,,
-2.678400e-01,+8.962667e-01,,
-2.676133e-01,+8.802667e-01,,
-2.696933e-01,+8.802667e-01,,
-2.699200e-01,+8.870667e-01,,
-2.685333e-01,+8.985333e-01,,
-2.687600e-01,+8.917333e-01,,
-2.692266e-01,+8.917333e-01,,
-2.680666e-01,+8.894667e-01,,
-2.683066e-01,+8.962667e-01,,
-2.683066e-01,+8.940000e-01,,
-2.687600e-01,+9.077333e-01,,
-2.680666e-01,+9.008000e-01,,
-2.687600e-01,+9.237334e-01,,
-2.687600e-01,+8.985333e-01,,
-2.715467e-01,+8.940000e-01,,
-2.699200e-01,+9.168000e-01,,
-2.703866e-01,+9.282667e-01,,
-2.676133e-01,+9.168000e-01,,
-2.676133e-01,+9.168000e-01,,
-2.676133e-01,+9.237334e-01,,
-2.685333e-01,+9.237334e-01,,
-2.692266e-01,+9.122667e-01,,
-2.694666e-01,+9.397333e-01,,
-2.694666e-01,+9.282667e-01,,
-2.708533e-01,+9.352000e-01,,
-2.715467e-01,+9.192000e-01,,
-2.701600e-01,+9.237334e-01,,
-2.685333e-01,+9.352000e-01,,
-2.685333e-01,+9.442667e-01,,
-2.680666e-01,+9.260000e-01,,
-2.680666e-01,+9.420000e-01,,
-2.683066e-01,+9.374667e-01,,
-2.680666e-01,+9.466667e-01,,
-2.713200e-01,+9.237334e-01,,
-2.731733e-01,+9.602666e-01,,
-2.706133e-01,+9.534667e-01,,
-2.708533e-01,+9.420000e-01,,
-2.713200e-01,+9.352000e-01,,
-2.680666e-01,+9.442667e-01,,
-2.652933e-01,+9.442667e-01,,
-2.664533e-01,+9.534667e-01,,
-2.627467e-01,+9.352000e-01,,
-2.629733e-01,+9.512000e-01,,
-2.620533e-01,+9.420000e-01,,
-2.629733e-01,+9.512000e-01,,
-2.625066e-01,+9.305333e-01,,
-2.622800e-01,+9.534667e-01,,
-2.611200e-01,+9.420000e-01,,
-2.602000e-01,+9.694667e-01,,
-2.604266e-01,+9.557334e-01,,
-2.611200e-01,+9.512000e-01,,
-2.597333e-01,+9.580000e-01,,
-2.590400e-01,+9.649333e-01,,
-2.583466e-01,+9.580000e-01,,
-2.594933e-01,+9.717333e-01,,
-2.592666e-01,+9.717333e-01,,
-2.588000e-01,+9.809334e-01,,
-2.599600e-01,+9.534667e-01,,
-2.578800e-01,+9.854667e-01,,
-2.588000e-01,+9.672000e-01,,
-2.581066e-01,+9.717333e-01,,
-2.574133e-01,+9.557334e-01,,
-2.585733e-01,+9.694667e-01,,
-2.590400e-01,+9.740000e-01,,
-2.597333e-01,+9.764000e-01,,
-2.606533e-01,+9.694667e-01,,
-2.613466e-01,+9.786667e-01,,
-2.602000e-01,+9.854667e-01,,
-2.599600e-01,+9.717333e-01,,
-2.606533e-01,+9.786667e-01,,
-2.590400e-01,+9.832000e-01,,
-2.592666e-01,+9.764000e-01,,
-2.597333e-01,+9.786667e-01,,
-2.597333e-01,+9.672000e-01,,
-2.615866e-01,+9.854667e-01,,
-2.618133e-01,+9.924000e-01,,
-2.622800e-01,+9.946667e-01,,
-2.615866e-01,+9.717333e-01,,
-2.618133e-01,+9.946667e-01,,
-2.611200e-01,+9.809334e-01,,
-2.615866e-01,+9.992000e-01,,
-2.611200e-01,+9.854667e-01,,
-2.613466e-01,+9.854667e-01,,
-2.611200e-01,+9.809334e-01,,
-2.615866e-01,+1.003733e+00,,
-2.625066e-01,+9.969333e-01,,
-2.629733e-01,+9.786667e-01,,
-2.629733e-01,+9.832000e-01,,
-2.629733e-01,+9.992000e-01,,
-2.574133e-01,+9.786667e-01,,
-2.530133e-01,+9.900000e-01,,
-2.504666e-01,+9.992000e-01,,
-2.493066e-01,+9.854667e-01,,
-2.488400e-01,+9.946667e-01,,
-2.456000e-01,+9.946667e-01,,
-2.453733e-01,+9.946667e-01,,
-2.460666e-01,+9.946667e-01,,
-2.453733e-01,+9.969333e-01,,
-2.460666e-01,+1.001467e+00,,
-2.453733e-01,+9.924000e-01,,
-2.432800e-01,+9.992000e-01,,
-2.439733e-01,+9.969333e-01,,
-2.442133e-01,+1.001467e+00,,
-2.430533e-01,+1.003733e+00,,
-2.418933e-01,+1.006133e+00,,
-2.407333e-01,+9.946667e-01,,
-2.407333e-01,+9.992000e-01,,
-2.407333e-01,+1.006133e+00,,
-2.435200e-01,+1.003733e+00,,
-2.432800e-01,+9.969333e-01,,
-2.439733e-01,+1.003733e+00,,
-2.425866e-01,+1.001467e+00,,
-2.435200e-01,+1.010667e+00,,
-2.435200e-01,+9.992000e-01,,
-2.430533e-01,+1.017467e+00,,
-2.414266e-01,+1.001467e+00,,
-2.414266e-01,+1.001467e+00,,
-2.418933e-01,+1.003733e+00,,
-2.414266e-01,+9.992000e-01,,
-2.435200e-01,+1.012933e+00,,
-2.435200e-01,+1.019867e+00,,
-2.449066e-01,+9.946667e-01,,
-2.442133e-01,+1.015200e+00,,
-2.435200e-01,+1.006133e+00,,
-2.425866e-01,+1.006133e+00,,
-2.418933e-01,+1.019867e+00,,
-2.435200e-01,+1.010667e+00,,
-2.435200e-01,+1.003733e+00,,
-2.446667e-01,+1.006133e+00,,
-2.449066e-01,+9.900000e-01,,
-2.442133e-01,+1.008400e+00,,
-2.449066e-01,+9.946667e-01,,
-2.458266e-01,+1.006133e+00,,
-2.451333e-01,+9.946667e-01,,
-2.460666e-01,+1.006133e+00,,
-2.458266e-01,+9.969333e-01,,
-2.453733e-01,+1.017467e+00,,
-2.456000e-01,+1.001467e+00,,
-2.462933e-01,+1.006133e+00,,
-2.462933e-01,+9.946667e-01,,
-2.416666e-01,+1.015200e+00,,
-2.398133e-01,+1.008400e+00,,
-2.398133e-01,+1.012933e+00,,
-2.351733e-01,+1.006133e+00,,
-2.356400e-01,+1.015200e+00,,
-2.337867e-01,+9.854667e-01,,
-2.314667e-01,+1.008400e+00,,
-2.321600e-01,+9.946667e-01,,
-2.300800e-01,+9.969333e-01,,
-2.305467e-01,+9.854667e-01,,
-2.314667e-01,+1.012933e+00,,
-2.314667e-01,+1.006133e+00,,
-2.328533e-01,+1.008400e+00,,
-2.291466e-01,+9.900000e-01,,
-2.296133e-01,+1.003733e+00,,
-2.282266e-01,+1.001467e+00,,
-2.282266e-01,+1.003733e+00,,
-2.282266e-01,+9.900000e-01,,
-2.296133e-01,+9.900000e-01,,
-2.284533e-01,+1.006133e+00,,
-2.291466e-01,+1.006133e+00,,
-2.305467e-01,+9.924000e-01,,
-2.284533e-01,+1.001467e+00,,
-2.293867e-01,+9.946667e-01,,
-2.296133e-01,+9.946667e-01,,
-2.291466e-01,+1.003733e+00,,
-2.289200e-01,+9.900000e-01,,
-2.282266e-01,+1.001467e+00,,
-2.291466e-01,+1.003733e+00,,
-2.303067e-01,+9.900000e-01,,
-2.314667e-01,+1.006133e+00,,
-2.305467e-01,+9.969333e-01,,
-2.312400e-01,+1.001467e+00,,
-2.321600e-01,+9.924000e-01,,
-2.328533e-01,+9.992000e-01,,
-2.310000e-01,+9.900000e-01,,
-2.300800e-01,+9.946667e-01,,
-2.310000e-01,+9.854667e-01,,
-2.321600e-01,+9.877334e-01,,
-2.307733e-01,+9.924000e-01,,
-2.328533e-01,+9.900000e-01,,
-2.330933e-01,+9.832000e-01,,
-2.328533e-01,+9.900000e-01,,
-2.319333e-01,+9.854667e-01,,
-2.330933e-01,+9.854667e-01,,
-2.314667e-01,+9.740000e-01,,
-2.321600e-01,+9.854667e-01,,
-2.321600e-01,+9.854667e-01,,
-2.328533e-01,+9.717333e-01,,
-2.314667e-01,+9.786667e-01,,
-2.319333e-01,+9.832000e-01,,
-2.252133e-01,+9.740000e-01,,
-2.266000e-01,+9.832000e-01,,
-2.226667e-01,+9.786667e-01,,
-2.205733e-01,+9.786667e-01,,
-2.189600e-01,+9.924000e-01,,
-2.198800e-01,+9.786667e-01,,
-2.182667e-01,+9.786667e-01,,
-2.178000e-01,+9.946667e-01,,
-2.175733e-01,+9.740000e-01,,
-2.182667e-01,+9.764000e-01,,
-2.173333e-01,+9.672000e-01,,
-2.189600e-01,+9.900000e-01,,
-2.191866e-01,+9.740000e-01,,
-2.175733e-01,+9.740000e-01,,
-2.166400e-01,+9.649333e-01,,
-2.152533e-01,+9.580000e-01,,
-2.131600e-01,+9.672000e-01,,
-2.154800e-01,+9.694667e-01,,
-2.152533e-01,+9.649333e-01,,
-2.161733e-01,+9.672000e-01,,
-2.178000e-01,+9.626667e-01,,
-2.173333e-01,+9.649333e-01,,
-2.168667e-01,+9.420000e-01,,
-2.171067e-01,+9.672000e-01,,
-2.171067e-01,+9.534667e-01,,
-2.173333e-01,+9.694667e-01,,
-2.168667e-01,+9.534667e-01,,
-2.161733e-01,+9.557334e-01,,
-2.154800e-01,+9.557334e-01,,
-2.154800e-01,+9.534667e-01,,
-2.166400e-01,+9.512000e-01,,
-2.157200e-01,+9.534667e-01,,
-2.166400e-01,+9.420000e-01,,
-2.180267e-01,+9.466667e-01,,
-2.168667e-01,+9.352000e-01,,
-2.173333e-01,+9.420000e-01,,
-2.171067e-01,+9.466667e-01,,
-2.182667e-01,+9.466667e-01,,
-2.166400e-01,+9.352000e-01,,
-2.171067e-01,+9.420000e-01,,
-2.180267e-01,+9.352000e-01,,
-2.182667e-01,+9.466667e-01,,
-2.178000e-01,+9.100000e-01,,
-2.175733e-01,+9.352000e-01,,
-2.178000e-01,+9.260000e-01,,
-2.175733e-01,+9.466667e-01,,
-2.180267e-01,+9.192000e-01,,
-2.173333e-01,+9.352000e-01,,
-2.178000e-01,+9.237334e-01,,
-2.182667e-01,+9.192000e-01,,
-2.166400e-01,+9.305333e-01,,
-2.131600e-01,+9.305333e-01,,
-2.145600e-01,+9.168000e-01,,
-2.120133e-01,+9.282667e-01,,
-2.106133e-01,+9.122667e-01,,
-2.099200e-01,+9.329333e-01,,
-2.087600e-01,+9.054667e-01,,
-2.087600e-01,+9.237334e-01,,
-2.076000e-01,+9.054667e-01,,
-2.087600e-01,+9.077333e-01,,
-2.083067e-01,+8.848000e-01,,
-2.087600e-01,+9.145333e-01,,
-2.092267e-01,+8.962667e-01,,
-2.080667e-01,+9.054667e-01,,
-2.085333e-01,+8.962667e-01,,
-2.080667e-01,+8.962667e-01,,
-2.076000e-01,+8.940000e-01,,
-2.062133e-01,+8.962667e-01,,
-2.076000e-01,+8.940000e-01,,
-2.080667e-01,+8.962667e-01,,
-2.076000e-01,+8.870667e-01,,
-2.087600e-01,+8.894667e-01,,
-2.080667e-01,+8.825334e-01,,
-2.083067e-01,+8.894667e-01,,
-2.083067e-01,+8.642667e-01,,
-2.078400e-01,+8.985333e-01,,
-2.080667e-01,+8.734667e-01,,
-2.078400e-01,+8.825334e-01,,
-2.057467e-01,+8.757333e-01,,
-2.076000e-01,+8.780000e-01,,
-2.057467e-01,+8.734667e-01,,
-2.064533e-01,+8.505334e-01,,
-2.069066e-01,+8.620000e-01,,
-2.078400e-01,+8.848000e-01,,
-2.059866e-01,+8.642667e-01,,
-2.064533e-01,+8.780000e-01,,
-2.069066e-01,+8.688000e-01,,
-2.080667e-01,+8.734667e-01,,
-2.076000e-01,+8.665333e-01,,
-2.080667e-01,+8.620000e-01,,
-2.080667e-01,+8.390667e-01,,
-2.085333e-01,+8.597333e-01,,
-2.087600e-01,+8.482667e-01,,
-2.087600e-01,+8.528000e-01,,
-2.076000e-01,+8.460000e-01,,
-2.076000e-01,+8.436000e-01,,
-2.073733e-01,+8.368000e-01,,
-2.062133e-01,+8.390667e-01,,
-2.069066e-01,+8.300000e-01,,
-2.080667e-01,+8.345333e-01,,
-2.073733e-01,+8.276000e-01,,
-2.036667e-01,+8.368000e-01,,
-2.004267e-01,+8.300000e-01,,
-2.013467e-01,+8.460000e-01,,
-1.990400e-01,+8.276000e-01,,
-1.992667e-01,+8.276000e-01,,
-1.974133e-01,+8.093333e-01,,
-1.971866e-01,+8.413333e-01,,
-1.948667e-01,+8.138667e-01,,
-1.934800e-01,+8.253334e-01,,
-1.918533e-01,+8.070667e-01,,
-1.902267e-01,+8.048000e-01,,
-1.902267e-01,+8.185334e-01,,
-1.906933e-01,+8.185334e-01,,
-1.893066e-01,+7.933334e-01,,
-1.895333e-01,+7.956000e-01,,
-1.902267e-01,+7.865334e-01,,
-1.883733e-01,+8.025333e-01,,
-1.911600e-01,+7.978667e-01,,
-1.904667e-01,+7.956000e-01,,
-1.930133e-01,+7.933334e-01,,
-1.939333e-01,+7.865334e-01,,
-1.948667e-01,+7.841333e-01,,
-1.944000e-01,+7.888000e-01,,
-1.932400e-01,+7.796000e-01,,
-1.930133e-01,+7.818667e-01,,
-1.913867e-01,+7.636000e-01,,
-1.904667e-01,+7.773333e-01,,
-1.904667e-01,+7.636000e-01,,
-1.895333e-01,+7.728000e-01,,
-1.879200e-01,+7.590667e-01,,
-1.876800e-01,+7.681333e-01,,
-1.862933e-01,+7.521334e-01,,
-1.881467e-01,+7.636000e-01,,
-1.883733e-01,+7.430667e-01,,
-1.900000e-01,+7.568000e-01,,
-1.920800e-01,+7.590667e-01,,
-1.918533e-01,+7.704000e-01,,
-1.916267e-01,+7.453333e-01,,
-1.923200e-01,+7.498667e-01,,
-1.913867e-01,+7.361333e-01,,
-1.906933e-01,+7.406667e-01,,
-1.909200e-01,+7.338667e-01,,
-1.902267e-01,+7.224000e-01,,
-1.909200e-01,+7.406667e-01,,
-1.918533e-01,+7.316000e-01,,
-1.927733e-01,+7.178667e-01,,
-1.923200e-01,+7.246667e-01,,
-1.916267e-01,+7.109333e-01,,
-1.927733e-01,+7.201334e-01,,
-1.897733e-01,+6.949334e-01,,
-1.904667e-01,+7.293333e-01,,
-1.860667e-01,+6.949334e-01,,
-1.793467e-01,+7.109333e-01,,
-1.795733e-01,+6.996000e-01,,
-1.758666e-01,+6.972000e-01,,
-1.749467e-01,+6.972000e-01,,
-1.749467e-01,+6.996000e-01,,
-1.760933e-01,+6.858667e-01,,
-1.768000e-01,+6.949334e-01,,
-1.754000e-01,+6.996000e-01,,
-1.758666e-01,+6.812000e-01,,
-1.754000e-01,+6.836000e-01,,
-1.781867e-01,+6.858667e-01,,
-1.779467e-01,+6.698667e-01,,
-1.798000e-01,+6.561334e-01,,
-1.770267e-01,+6.721333e-01,,
-1.770267e-01,+6.721333e-01,,
-1.747067e-01,+6.652000e-01,,
-1.747067e-01,+6.721333e-01,,
-1.726267e-01,+6.584000e-01,,
-1.719333e-01,+6.674667e-01,,
-1.712400e-01,+6.674667e-01,,
-1.691467e-01,+6.652000e-01,,
-1.707733e-01,+6.264000e-01,,
-1.705333e-01,+6.469333e-01,,
-1.714666e-01,+6.538666e-01,,
-1.730933e-01,+6.561334e-01,,
-1.749467e-01,+6.377333e-01,,
-1.758666e-01,+6.401333e-01,,
-1.760933e-01,+6.424000e-01,,
-1.768000e-01,+6.172000e-01,,
-1.772533e-01,+6.217334e-01,,
-1.770267e-01,+6.264000e-01,,
