main/RLC/Derek_experiment/data/notch_800khz0.csv

CH1V,CH2V,t0 =-4.880000e-05, tInc = 1.000000e-07,
-2.701600e-01,-3.436000e-01,,
-2.710800e-01,-3.870667e-01,,
-2.710800e-01,-3.756000e-01,,
-2.706133e-01,-3.893333e-01,,
-2.706133e-01,-3.778667e-01,,
-2.692266e-01,-3.824000e-01,,
-2.708533e-01,-3.916000e-01,,
-2.703866e-01,-3.961333e-01,,
-2.666800e-01,-4.030667e-01,,
-2.602000e-01,-4.076000e-01,,
-2.622800e-01,-4.098667e-01,,
-2.578800e-01,-4.281333e-01,,
-2.571867e-01,-4.168000e-01,,
-2.562533e-01,-4.373333e-01,,
-2.557867e-01,-4.328000e-01,,
-2.550933e-01,-4.328000e-01,,
-2.560267e-01,-4.373333e-01,,
-2.534800e-01,-4.328000e-01,,
-2.560267e-01,-4.510667e-01,,
-2.569467e-01,-4.625333e-01,,
-2.574133e-01,-4.488000e-01,,
-2.574133e-01,-4.625333e-01,,
-2.564933e-01,-4.740000e-01,,
-2.562533e-01,-4.693334e-01,,
-2.557867e-01,-4.648000e-01,,
-2.569467e-01,-4.740000e-01,,
-2.553333e-01,-4.785333e-01,,
-2.546400e-01,-4.785333e-01,,
-2.557867e-01,-4.830667e-01,,
-2.562533e-01,-4.990667e-01,,
-2.560267e-01,-5.105333e-01,,
-2.562533e-01,-4.945333e-01,,
-2.562533e-01,-5.197333e-01,,
-2.569467e-01,-5.105333e-01,,
-2.567200e-01,-5.220000e-01,,
-2.557867e-01,-5.288000e-01,,
-2.562533e-01,-5.310667e-01,,
-2.564933e-01,-5.220000e-01,,
-2.560267e-01,-5.242667e-01,,
-2.562533e-01,-5.380000e-01,,
-2.564933e-01,-5.402667e-01,,
-2.560267e-01,-5.380000e-01,,
-2.562533e-01,-5.540000e-01,,
-2.562533e-01,-5.448000e-01,,
-2.574133e-01,-5.608000e-01,,
-2.574133e-01,-5.632000e-01,,
-2.548667e-01,-5.677333e-01,,
-2.493066e-01,-5.677333e-01,,
-2.502266e-01,-5.769333e-01,,
-2.446667e-01,-5.837333e-01,,
-2.442133e-01,-5.792000e-01,,
-2.435200e-01,-5.722667e-01,,
-2.449066e-01,-5.905333e-01,,
-2.425866e-01,-5.905333e-01,,
-2.442133e-01,-5.769333e-01,,
-2.439733e-01,-5.952000e-01,,
-2.449066e-01,-5.929334e-01,,
-2.432800e-01,-5.974666e-01,,
-2.444400e-01,-6.042667e-01,,
-2.446667e-01,-6.180000e-01,,
-2.453733e-01,-6.157333e-01,,
-2.449066e-01,-6.317334e-01,,
-2.435200e-01,-6.272000e-01,,
-2.439733e-01,-6.317334e-01,,
-2.444400e-01,-6.409333e-01,,
-2.437467e-01,-6.340000e-01,,
-2.442133e-01,-6.454667e-01,,
-2.435200e-01,-6.614667e-01,,
-2.446667e-01,-6.569334e-01,,
-2.442133e-01,-6.661333e-01,,
-2.442133e-01,-6.454667e-01,,
-2.462933e-01,-6.729333e-01,,
-2.462933e-01,-6.614667e-01,,
-2.446667e-01,-6.729333e-01,,
-2.453733e-01,-6.774667e-01,,
-2.446667e-01,-6.821333e-01,,
-2.446667e-01,-6.774667e-01,,
-2.446667e-01,-6.889333e-01,,
-2.437467e-01,-6.798667e-01,,
-2.453733e-01,-6.821333e-01,,
-2.460666e-01,-6.981333e-01,,
-2.449066e-01,-7.004000e-01,,
-2.453733e-01,-6.958667e-01,,
-2.453733e-01,-7.004000e-01,,
-2.444400e-01,-7.072000e-01,,
-2.393467e-01,-7.072000e-01,,
-2.363333e-01,-7.118667e-01,,
-2.347067e-01,-7.324000e-01,,
-2.328533e-01,-7.096000e-01,,
-2.319333e-01,-7.324000e-01,,
-2.335466e-01,-7.186667e-01,,
-2.312400e-01,-7.233334e-01,,
-2.314667e-01,-7.324000e-01,,
-2.319333e-01,-7.233334e-01,,
-2.328533e-01,-7.301334e-01,,
-2.312400e-01,-7.438667e-01,,
-2.324000e-01,-7.324000e-01,,
-2.321600e-01,-7.576000e-01,,
-2.319333e-01,-7.369334e-01,,
-2.326266e-01,-7.621334e-01,,
-2.326266e-01,-7.506667e-01,,
-2.330933e-01,-7.530667e-01,,
-2.324000e-01,-7.598667e-01,,
-2.316933e-01,-7.668000e-01,,
-2.328533e-01,-7.644000e-01,,
-2.342533e-01,-7.576000e-01,,
-2.321600e-01,-7.644000e-01,,
-2.316933e-01,-7.736000e-01,,
-2.319333e-01,-7.804000e-01,,
-2.333200e-01,-7.758667e-01,,
-2.328533e-01,-7.850667e-01,,
-2.310000e-01,-7.804000e-01,,
-2.335466e-01,-7.918667e-01,,
-2.340133e-01,-7.965333e-01,,
-2.321600e-01,-7.896000e-01,,
-2.330933e-01,-8.125333e-01,,
-2.324000e-01,-7.988000e-01,,
-2.330933e-01,-8.056000e-01,,
-2.340133e-01,-7.965333e-01,,
-2.316933e-01,-7.941334e-01,,
-2.310000e-01,-7.941334e-01,,
-2.326266e-01,-8.193333e-01,,
-2.303067e-01,-8.148000e-01,,
-2.263733e-01,-8.238667e-01,,
-2.277600e-01,-8.216000e-01,,
-2.245200e-01,-8.238667e-01,,
-2.235866e-01,-8.193333e-01,,
-2.219733e-01,-8.308000e-01,,
-2.231333e-01,-8.238667e-01,,
-2.226667e-01,-8.445333e-01,,
-2.222000e-01,-8.308000e-01,,
-2.233600e-01,-8.400000e-01,,
-2.233600e-01,-8.285334e-01,,
-2.235866e-01,-8.468000e-01,,
-2.233600e-01,-8.490667e-01,,
-2.238266e-01,-8.400000e-01,,
-2.245200e-01,-8.445333e-01,,
-2.242800e-01,-8.468000e-01,,
-2.231333e-01,-8.560000e-01,,
-2.233600e-01,-8.605334e-01,,
-2.231333e-01,-8.513333e-01,,
-2.228933e-01,-8.650666e-01,,
-2.233600e-01,-8.650666e-01,,
-2.235866e-01,-8.673334e-01,,
-2.240533e-01,-8.673334e-01,,
-2.231333e-01,-8.536000e-01,,
-2.245200e-01,-8.650666e-01,,
-2.249867e-01,-8.765333e-01,,
-2.247466e-01,-8.628000e-01,,
-2.249867e-01,-8.673334e-01,,
-2.238266e-01,-8.833333e-01,,
-2.228933e-01,-8.925334e-01,,
-2.224267e-01,-8.880000e-01,,
-2.233600e-01,-8.925334e-01,,
-2.266000e-01,-8.810667e-01,,
-2.233600e-01,-8.948000e-01,,
-2.247466e-01,-8.810667e-01,,
-2.261333e-01,-8.948000e-01,,
-2.245200e-01,-9.017333e-01,,
-2.231333e-01,-9.108000e-01,,
-2.238266e-01,-8.970667e-01,,
-2.147866e-01,-8.902667e-01,,
-2.140933e-01,-8.948000e-01,,
-2.120133e-01,-9.154667e-01,,
-2.080667e-01,-8.948000e-01,,
-2.085333e-01,-9.200000e-01,,
-2.092267e-01,-8.994667e-01,,
-2.087600e-01,-9.177334e-01,,
-2.099200e-01,-8.948000e-01,,
-2.087600e-01,-9.062667e-01,,
-2.076000e-01,-9.085333e-01,,
-2.071466e-01,-9.268000e-01,,
-2.078400e-01,-9.085333e-01,,
-2.087600e-01,-9.245334e-01,,
-2.085333e-01,-9.085333e-01,,
-2.085333e-01,-9.177334e-01,,
-2.092267e-01,-9.108000e-01,,
-2.092267e-01,-9.222667e-01,,
-2.066800e-01,-9.154667e-01,,
-2.080667e-01,-9.245334e-01,,
-2.087600e-01,-9.292000e-01,,
-2.080667e-01,-9.292000e-01,,
-2.085333e-01,-9.314667e-01,,
-2.073733e-01,-9.337333e-01,,
-2.083067e-01,-9.245334e-01,,
-2.085333e-01,-9.360000e-01,,
-2.085333e-01,-9.452000e-01,,
-2.092267e-01,-9.405333e-01,,
-2.099200e-01,-9.405333e-01,,
-2.092267e-01,-9.360000e-01,,
-2.085333e-01,-9.200000e-01,,
-2.085333e-01,-9.452000e-01,,
-2.076000e-01,-9.245334e-01,,
-2.076000e-01,-9.429333e-01,,
-2.073733e-01,-9.429333e-01,,
-2.080667e-01,-9.429333e-01,,
-2.092267e-01,-9.474667e-01,,
-2.085333e-01,-9.589334e-01,,
-2.076000e-01,-9.542667e-01,,
-2.025066e-01,-9.542667e-01,,
-1.988000e-01,-9.405333e-01,,
-1.967200e-01,-9.405333e-01,,
-1.911600e-01,-9.382667e-01,,
-1.918533e-01,-9.474667e-01,,
-1.920800e-01,-9.565334e-01,,
-1.913867e-01,-9.565334e-01,,
-1.927733e-01,-9.497333e-01,,
-1.925467e-01,-9.520000e-01,,
-1.932400e-01,-9.405333e-01,,
-1.934800e-01,-9.452000e-01,,
-1.930133e-01,-9.452000e-01,,
-1.920800e-01,-9.497333e-01,,
-1.930133e-01,-9.452000e-01,,
-1.909200e-01,-9.612000e-01,,
-1.925467e-01,-9.405333e-01,,
-1.913867e-01,-9.634667e-01,,
-1.916267e-01,-9.634667e-01,,
-1.920800e-01,-9.702667e-01,,
-1.918533e-01,-9.429333e-01,,
-1.909200e-01,-9.589334e-01,,
-1.927733e-01,-9.612000e-01,,
-1.937066e-01,-9.772000e-01,,
-1.918533e-01,-9.702667e-01,,
-1.930133e-01,-9.749333e-01,,
-1.918533e-01,-9.612000e-01,,
-1.916267e-01,-9.542667e-01,,
-1.934800e-01,-9.520000e-01,,
-1.911600e-01,-9.542667e-01,,
-1.920800e-01,-9.702667e-01,,
-1.925467e-01,-9.634667e-01,,
-1.920800e-01,-9.452000e-01,,
-1.927733e-01,-9.680000e-01,,
-1.927733e-01,-9.474667e-01,,
-1.906933e-01,-9.565334e-01,,
-1.932400e-01,-9.497333e-01,,
-1.932400e-01,-9.565334e-01,,
-1.913867e-01,-9.520000e-01,,
-1.909200e-01,-9.702667e-01,,
-1.846666e-01,-9.612000e-01,,
-1.849066e-01,-9.726667e-01,,
-1.814267e-01,-9.589334e-01,,
-1.800400e-01,-9.702667e-01,,
-1.795733e-01,-9.565334e-01,,
-1.800400e-01,-9.634667e-01,,
-1.802666e-01,-9.589334e-01,,
-1.786533e-01,-9.680000e-01,,
-1.791067e-01,-9.520000e-01,,
-1.786533e-01,-9.565334e-01,,
-1.791067e-01,-9.337333e-01,,
-1.800400e-01,-9.565334e-01,,
-1.814267e-01,-9.657333e-01,,
-1.798000e-01,-9.589334e-01,,
-1.816533e-01,-9.360000e-01,,
-1.807333e-01,-9.565334e-01,,
-1.795733e-01,-9.520000e-01,,
-1.779467e-01,-9.589334e-01,,
-1.795733e-01,-9.452000e-01,,
-1.800400e-01,-9.589334e-01,,
-1.814267e-01,-9.405333e-01,,
-1.802666e-01,-9.749333e-01,,
-1.798000e-01,-9.405333e-01,,
-1.802666e-01,-9.542667e-01,,
-1.812000e-01,-9.452000e-01,,
-1.805066e-01,-9.497333e-01,,
-1.809600e-01,-9.429333e-01,,
-1.793467e-01,-9.542667e-01,,
-1.793467e-01,-9.360000e-01,,
-1.791067e-01,-9.452000e-01,,
-1.795733e-01,-9.245334e-01,,
-1.791067e-01,-9.452000e-01,,
-1.798000e-01,-9.337333e-01,,
-1.795733e-01,-9.452000e-01,,
-1.793467e-01,-9.405333e-01,,
-1.795733e-01,-9.405333e-01,,
-1.788800e-01,-9.200000e-01,,
-1.784133e-01,-9.360000e-01,,
-1.698400e-01,-9.268000e-01,,
-1.675333e-01,-9.382667e-01,,
-1.652133e-01,-9.292000e-01,,
-1.633600e-01,-9.337333e-01,,
-1.617333e-01,-9.108000e-01,,
-1.633600e-01,-9.360000e-01,,
-1.626666e-01,-9.222667e-01,,
-1.603467e-01,-9.405333e-01,,
-1.617333e-01,-9.292000e-01,,
-1.612667e-01,-9.314667e-01,,
-1.617333e-01,-9.085333e-01,,
-1.619733e-01,-9.360000e-01,,
-1.635867e-01,-9.177334e-01,,
-1.617333e-01,-9.085333e-01,,
-1.628933e-01,-9.132000e-01,,
-1.608133e-01,-9.314667e-01,,
-1.615067e-01,-9.108000e-01,,
-1.626666e-01,-9.108000e-01,,
-1.594133e-01,-9.132000e-01,,
-1.610400e-01,-9.222667e-01,,
-1.612667e-01,-9.062667e-01,,
-1.605733e-01,-9.200000e-01,,
-1.603467e-01,-9.040000e-01,,
-1.598800e-01,-9.017333e-01,,
-1.617333e-01,-8.857334e-01,,
-1.617333e-01,-9.017333e-01,,
-1.612667e-01,-9.062667e-01,,
-1.619733e-01,-9.040000e-01,,
-1.619733e-01,-8.970667e-01,,
-1.617333e-01,-8.925334e-01,,
-1.598800e-01,-8.925334e-01,,
-1.598800e-01,-8.902667e-01,,
-1.605733e-01,-8.742667e-01,,
-1.596533e-01,-8.880000e-01,,
-1.612667e-01,-8.742667e-01,,
-1.612667e-01,-8.925334e-01,,
-1.610400e-01,-8.673334e-01,,
-1.568667e-01,-8.880000e-01,,
-1.487600e-01,-8.765333e-01,,
-1.496933e-01,-8.673334e-01,,
-1.441333e-01,-8.628000e-01,,
-1.432000e-01,-8.833333e-01,,
-1.420400e-01,-8.490667e-01,,
-1.429733e-01,-8.605334e-01,,
-1.434400e-01,-8.742667e-01,,
-1.425067e-01,-8.560000e-01,,
-1.432000e-01,-8.513333e-01,,
-1.436667e-01,-8.560000e-01,,
-1.436667e-01,-8.376000e-01,,
-1.427333e-01,-8.582667e-01,,
-1.436667e-01,-8.490667e-01,,
-1.422800e-01,-8.513333e-01,,
-1.436667e-01,-8.422667e-01,,
-1.427333e-01,-8.400000e-01,,
-1.415867e-01,-8.400000e-01,,
-1.406533e-01,-8.353333e-01,,
-1.411200e-01,-8.330667e-01,,
-1.413467e-01,-8.330667e-01,,
-1.415867e-01,-8.262666e-01,,
-1.415867e-01,-8.400000e-01,,
-1.422800e-01,-8.193333e-01,,
-1.413467e-01,-8.285334e-01,,
-1.429733e-01,-8.101333e-01,,
-1.418133e-01,-8.125333e-01,,
-1.420400e-01,-8.078667e-01,,
-1.418133e-01,-8.170667e-01,,
-1.415867e-01,-8.078667e-01,,
-1.427333e-01,-8.170667e-01,,
-1.427333e-01,-7.988000e-01,,
-1.422800e-01,-8.033333e-01,,
-1.420400e-01,-7.918667e-01,,
-1.399600e-01,-8.078667e-01,,
-1.422800e-01,-7.965333e-01,,
-1.418133e-01,-7.988000e-01,,
-1.418133e-01,-7.850667e-01,,
-1.401867e-01,-7.850667e-01,,
-1.330133e-01,-7.850667e-01,,
-1.332400e-01,-7.736000e-01,,
-1.316133e-01,-7.644000e-01,,
-1.286133e-01,-7.850667e-01,,
-1.295333e-01,-7.576000e-01,,
-1.293067e-01,-7.713333e-01,,
-1.276800e-01,-7.644000e-01,,
-1.272133e-01,-7.668000e-01,,
-1.267600e-01,-7.553334e-01,,
-1.276800e-01,-7.668000e-01,,
-1.272133e-01,-7.530667e-01,,
-1.281467e-01,-7.553334e-01,,
-1.290667e-01,-7.416000e-01,,
-1.281467e-01,-7.438667e-01,,
-1.279067e-01,-7.369334e-01,,
-1.265200e-01,-7.438667e-01,,
-1.274533e-01,-7.530667e-01,,
-1.269867e-01,-7.530667e-01,,
-1.262933e-01,-7.256000e-01,,
-1.265200e-01,-7.233334e-01,,
-1.279067e-01,-7.233334e-01,,
-1.279067e-01,-7.209333e-01,,
-1.279067e-01,-7.209333e-01,,
-1.283733e-01,-7.233334e-01,,
-1.279067e-01,-6.981333e-01,,
-1.281467e-01,-6.981333e-01,,
-1.279067e-01,-6.936000e-01,,
-1.251333e-01,-7.049333e-01,,
-1.279067e-01,-6.936000e-01,,
-1.262933e-01,-6.981333e-01,,
-1.258267e-01,-6.958667e-01,,
-1.267600e-01,-6.798667e-01,,
-1.283733e-01,-6.981333e-01,,
-1.279067e-01,-6.866667e-01,,
-1.274533e-01,-6.729333e-01,,
-1.262933e-01,-6.821333e-01,,
-1.260533e-01,-6.684000e-01,,
-1.260533e-01,-6.637334e-01,,
-1.160933e-01,-6.798667e-01,,
-1.140133e-01,-6.546667e-01,,
-1.133200e-01,-6.546667e-01,,
-1.091467e-01,-6.569334e-01,,
-1.086800e-01,-6.546667e-01,,
-1.075200e-01,-6.569334e-01,,
-1.072933e-01,-6.432000e-01,,
-1.082267e-01,-6.454667e-01,,
-1.091467e-01,-6.454667e-01,,
-1.068267e-01,-6.272000e-01,,
-1.082267e-01,-6.226667e-01,,
-1.098400e-01,-6.317334e-01,,
-1.079867e-01,-5.997334e-01,,
-1.075200e-01,-6.112000e-01,,
-1.089200e-01,-5.997334e-01,,
-1.082267e-01,-6.020000e-01,,
-1.056667e-01,-5.905333e-01,,
-1.079867e-01,-5.814667e-01,,
-1.075200e-01,-5.974666e-01,,
-1.082267e-01,-5.952000e-01,,
-1.079867e-01,-5.905333e-01,,
-1.070667e-01,-5.997334e-01,,
-1.059067e-01,-5.860000e-01,,
-1.059067e-01,-5.745333e-01,,
-1.066000e-01,-5.677333e-01,,
-1.070667e-01,-5.860000e-01,,
-1.063733e-01,-5.494667e-01,,
-1.075200e-01,-5.494667e-01,,
-1.059067e-01,-5.494667e-01,,
-1.075200e-01,-5.494667e-01,,
-1.068267e-01,-5.310667e-01,,
-1.052133e-01,-5.425333e-01,,
-1.047467e-01,-5.357333e-01,,
-1.049733e-01,-5.310667e-01,,
-1.056667e-01,-5.357333e-01,,
-1.063733e-01,-5.334667e-01,,
-1.068267e-01,-5.220000e-01,,
-1.068267e-01,-5.334667e-01,,
-9.918666e-02,-5.128000e-01,,
-8.527999e-02,-5.150667e-01,,
-8.759999e-02,-4.990667e-01,,
-7.694666e-02,-5.150667e-01,,
-7.509333e-02,-4.876000e-01,,
-7.532000e-02,-4.968000e-01,,
-7.370666e-02,-4.900000e-01,,
-7.346666e-02,-4.922667e-01,,
-7.393333e-02,-4.808000e-01,,
-7.301333e-02,-4.785333e-01,,
-7.324000e-02,-4.693334e-01,,
-7.439999e-02,-4.602667e-01,,
-7.625332e-02,-4.740000e-01,,
-7.601333e-02,-4.625333e-01,,
-7.301333e-02,-4.418667e-01,,
-7.370666e-02,-4.670667e-01,,
-7.277333e-02,-4.305333e-01,,
-7.346666e-02,-4.373333e-01,,
-7.301333e-02,-4.190667e-01,,
-7.230666e-02,-4.350667e-01,,
-7.254666e-02,-4.236000e-01,,
-7.324000e-02,-4.305333e-01,,
-7.301333e-02,-4.076000e-01,,
-7.116000e-02,-4.236000e-01,,
-7.092000e-02,-4.098667e-01,,
-7.301333e-02,-4.190667e-01,,
-7.230666e-02,-4.030667e-01,,
-7.254666e-02,-4.053333e-01,,
-7.207999e-02,-3.733333e-01,,
-7.254666e-02,-3.984000e-01,,
-7.069333e-02,-3.778667e-01,,
-7.138667e-02,-3.893333e-01,,
-7.185332e-02,-3.618667e-01,,
-7.092000e-02,-3.596000e-01,,
-7.069333e-02,-3.573333e-01,,
-7.207999e-02,-3.641333e-01,,
-7.116000e-02,-3.481333e-01,,
-6.906666e-02,-3.573333e-01,,
-6.049333e-02,-3.458667e-01,,
-6.026666e-02,-3.412000e-01,,
-5.818666e-02,-3.321333e-01,,
-5.517333e-02,-3.276000e-01,,
-5.377333e-02,-3.276000e-01,,
-5.332000e-02,-3.206667e-01,,
-5.262666e-02,-3.161334e-01,,
-5.308000e-02,-3.114667e-01,,
-5.215999e-02,-3.092000e-01,,
-5.146666e-02,-3.001333e-01,,
-5.146666e-02,-2.977333e-01,,
-5.308000e-02,-2.977333e-01,,
-5.285333e-02,-2.886667e-01,,
-5.332000e-02,-2.886667e-01,,
-5.493333e-02,-2.749333e-01,,
-5.308000e-02,-2.680000e-01,,
-5.169333e-02,-2.726667e-01,,
-5.262666e-02,-2.704000e-01,,
-5.053333e-02,-2.680000e-01,,
-5.146666e-02,-2.657333e-01,,
-5.146666e-02,-2.520000e-01,,
-5.238666e-02,-2.589333e-01,,
-5.169333e-02,-2.337333e-01,,
-5.262666e-02,-2.314667e-01,,
-5.238666e-02,-2.292000e-01,,
-5.215999e-02,-2.360000e-01,,
-5.262666e-02,-2.269333e-01,,
-5.377333e-02,-2.177333e-01,,
-5.215999e-02,-2.154667e-01,,
-5.030666e-02,-2.245333e-01,,
-5.146666e-02,-1.925333e-01,,
-5.215999e-02,-1.948000e-01,,
-5.146666e-02,-2.062667e-01,,
-5.077333e-02,-1.948000e-01,,
-5.030666e-02,-1.812000e-01,,
-5.100000e-02,-1.880000e-01,,
-5.053333e-02,-1.788000e-01,,
-4.914666e-02,-1.788000e-01,,
-4.474666e-02,-1.605333e-01,,
-3.825333e-02,-1.720000e-01,,
-3.802666e-02,-1.445333e-01,,
-3.385333e-02,-1.560000e-01,,
-3.338666e-02,-1.377333e-01,,
-3.293333e-02,-1.400000e-01,,
-3.316000e-02,-1.353333e-01,,
-3.385333e-02,-1.330667e-01,,
-3.246666e-02,-1.216000e-01,,
-3.246666e-02,-1.377333e-01,,
-3.293333e-02,-1.148000e-01,,
-3.246666e-02,-1.285333e-01,,
-3.246666e-02,-1.033333e-01,,
-3.200000e-02,-1.033333e-01,,
-3.130667e-02,-1.010667e-01,,
-3.153333e-02,-1.125333e-01,,
-3.084000e-02,-7.586667e-02,,
-3.316000e-02,-7.813334e-02,,
-3.108000e-02,-7.360000e-02,,
-3.153333e-02,-8.280000e-02,,
-3.014666e-02,-7.133333e-02,,
-3.246666e-02,-6.213333e-02,,
-3.224000e-02,-5.306667e-02,,
-3.038666e-02,-7.586667e-02,,
-3.177333e-02,-4.613334e-02,,
-3.153333e-02,-5.533333e-02,,
-3.200000e-02,-4.160000e-02,,
-3.130667e-02,-4.840000e-02,,
-3.293333e-02,-2.560000e-02,,
-3.269333e-02,-1.866667e-02,,
-3.130667e-02,-1.413333e-02,,
-3.038666e-02,-3.480000e-02,,
-3.038666e-02,-9.600000e-03,,
-3.084000e-02,-1.866667e-02,,
-2.898666e-02,-4.000000e-04,,
-2.853333e-02,+1.866667e-03,,
-3.130667e-02,+1.333333e-02,,
-3.084000e-02,+1.333333e-02,,
-2.853333e-02,+2.240000e-02,,
-2.226667e-02,+1.560000e-02,,
-2.273333e-02,+2.706667e-02,,
-1.880000e-02,+3.613333e-02,,
-1.532000e-02,+4.080000e-02,,
-1.578667e-02,+3.160000e-02,,
-1.601333e-02,+4.760000e-02,,
-1.670667e-02,+4.760000e-02,,
-1.670667e-02,+6.826667e-02,,
-1.648000e-02,+5.906667e-02,,
-1.717333e-02,+7.053334e-02,,
-1.741333e-02,+7.960000e-02,,
-1.810667e-02,+7.960000e-02,,
-1.670667e-02,+7.053334e-02,,
-1.601333e-02,+1.002667e-01,,
-1.717333e-02,+8.186667e-02,,
-1.416000e-02,+9.560000e-02,,
-1.346667e-02,+9.333333e-02,,
-1.485333e-02,+1.162667e-01,,
-1.625333e-02,+1.162667e-01,,
-1.648000e-02,+1.185333e-01,,
-1.670667e-02,+1.093333e-01,,
-1.717333e-02,+1.345333e-01,,
-1.556000e-02,+1.277333e-01,,
-1.625333e-02,+1.300000e-01,,
-1.556000e-02,+1.414667e-01,,
-1.601333e-02,+1.665333e-01,,
-1.601333e-02,+1.597333e-01,,
-1.556000e-02,+1.620000e-01,,
-1.485333e-02,+1.712000e-01,,
-1.485333e-02,+1.872000e-01,,
-1.532000e-02,+1.734667e-01,,
-1.416000e-02,+1.802667e-01,,
-1.485333e-02,+1.642667e-01,,
-1.440000e-02,+2.032000e-01,,
-1.440000e-02,+1.757333e-01,,
-1.416000e-02,+2.122667e-01,,
-1.346667e-02,+1.872000e-01,,
-1.346667e-02,+2.146667e-01,,
-6.293333e-03,+2.146667e-01,,
-3.973333e-03,+2.237333e-01,,
-7.333333e-04,+2.146667e-01,,
+2.053333e-03,+2.374667e-01,,
+6.666666e-04,+2.100000e-01,,
+6.666666e-04,+2.489333e-01,,
+2.746667e-03,+2.032000e-01,,
+1.586667e-03,+2.557333e-01,,
+2.280000e-03,+2.374667e-01,,
+2.746667e-03,+2.489333e-01,,
+2.746667e-03,+2.604000e-01,,
+1.826667e-03,+2.626667e-01,,
+2.746667e-03,+2.649333e-01,,
+2.053333e-03,+2.764000e-01,,
+2.973333e-03,+2.717333e-01,,
+2.746667e-03,+2.809334e-01,,
+2.746667e-03,+2.832000e-01,,
+2.053333e-03,+2.946667e-01,,
+2.520000e-03,+2.992000e-01,,
+3.906666e-03,+3.152000e-01,,
+1.826667e-03,+2.832000e-01,,
+4.373333e-03,+3.061333e-01,,
+3.213333e-03,+2.878667e-01,,
+4.133333e-03,+3.244000e-01,,
+2.280000e-03,+3.129333e-01,,
+3.213333e-03,+3.358667e-01,,
+5.066666e-03,+3.312000e-01,,
+4.600000e-03,+3.404000e-01,,
+4.600000e-03,+3.404000e-01,,
+5.986666e-03,+3.473333e-01,,
+4.600000e-03,+3.496000e-01,,
+5.066666e-03,+3.701333e-01,,
+3.906666e-03,+3.656000e-01,,
+4.133333e-03,+3.678667e-01,,
+3.906666e-03,+3.586667e-01,,
+4.600000e-03,+3.746667e-01,,
+3.906666e-03,+3.838667e-01,,
+5.293333e-03,+3.930667e-01,,
+1.038667e-02,+3.884000e-01,,
+1.525333e-02,+3.861333e-01,,
+1.572000e-02,+3.884000e-01,,
+2.081333e-02,+4.044000e-01,,
+2.105333e-02,+3.998667e-01,,
+2.197333e-02,+4.250667e-01,,
+2.058667e-02,+4.158667e-01,,
+2.150667e-02,+4.228000e-01,,
+2.150667e-02,+4.158667e-01,,
+2.081333e-02,+4.478667e-01,,
+2.128000e-02,+4.205333e-01,,
+2.150667e-02,+4.388000e-01,,
+2.128000e-02,+4.478667e-01,,
+2.266666e-02,+4.593333e-01,,
+2.221333e-02,+4.433333e-01,,
+2.128000e-02,+4.640000e-01,,
+2.197333e-02,+4.502667e-01,,
+2.105333e-02,+4.800000e-01,,
+2.197333e-02,+4.570667e-01,,
+2.244000e-02,+4.730667e-01,,
+2.174667e-02,+4.776000e-01,,
+2.266666e-02,+4.890667e-01,,
+2.336000e-02,+4.937333e-01,,
+2.360000e-02,+4.960000e-01,,
+2.429333e-02,+4.890667e-01,,
+2.336000e-02,+5.028000e-01,,
+2.128000e-02,+4.960000e-01,,
+2.081333e-02,+5.120000e-01,,
+2.336000e-02,+5.165333e-01,,
+2.244000e-02,+5.280000e-01,,
+2.221333e-02,+5.280000e-01,,
+2.429333e-02,+5.210667e-01,,
+2.360000e-02,+5.234666e-01,,
+2.382666e-02,+5.485333e-01,,
+2.360000e-02,+5.257334e-01,,
+2.452000e-02,+5.622666e-01,,
+2.313333e-02,+5.440000e-01,,
+2.498667e-02,+5.554667e-01,,
+3.032000e-02,+5.622666e-01,,
+3.148000e-02,+5.600000e-01,,
+3.378667e-02,+5.600000e-01,,
+3.680000e-02,+5.714667e-01,,
+3.448000e-02,+5.669333e-01,,
+3.657333e-02,+5.806667e-01,,
+3.726666e-02,+5.874667e-01,,
+3.680000e-02,+5.829334e-01,,
