main/RLC/Derek_experiment/data/notch_400khz1.csv

CH1V,CH2V,t0 =-4.880000e-05, tInc = 1.000000e-07,
-1.367200e-01,+2.706667e-02,,
-1.362533e-01,+3.160000e-02,,
-1.367200e-01,+4.306667e-02,,
-1.369467e-01,+3.160000e-02,,
-1.360267e-01,+2.480000e-02,,
-1.388000e-01,+2.013333e-02,,
-1.378800e-01,+1.333333e-02,,
-1.374133e-01,+2.933333e-02,,
-1.376400e-01,+2.013333e-02,,
-1.374133e-01,+2.706667e-02,,
-1.383333e-01,+1.866667e-03,,
-1.369467e-01,+1.333333e-02,,
-1.371733e-01,+1.106667e-02,,
-1.385733e-01,+4.133333e-03,,
-1.369467e-01,-4.933333e-03,,
-1.381067e-01,+1.106667e-02,,
-1.385733e-01,+1.866667e-03,,
-1.394933e-01,+1.866667e-03,,
-1.471467e-01,-9.600000e-03,,
-1.464400e-01,-4.933333e-03,,
-1.506133e-01,-2.106667e-02,,
-1.527067e-01,-1.866667e-02,,
-1.520000e-01,-3.933333e-02,,
-1.529333e-01,-9.600000e-03,,
-1.522400e-01,-3.013333e-02,,
-1.538533e-01,-2.786667e-02,,
-1.543200e-01,-3.013333e-02,,
-1.547867e-01,-1.640000e-02,,
-1.538533e-01,-2.560000e-02,,
-1.529333e-01,-3.013333e-02,,
-1.534000e-01,-5.760000e-02,,
-1.534000e-01,-3.240000e-02,,
-1.524667e-01,-5.306667e-02,,
-1.534000e-01,-5.080000e-02,,
-1.536267e-01,-6.453333e-02,,
-1.547867e-01,-5.080000e-02,,
-1.547867e-01,-5.760000e-02,,
-1.557067e-01,-7.813334e-02,,
-1.559467e-01,-6.453333e-02,,
-1.538533e-01,-5.986667e-02,,
-1.538533e-01,-6.906667e-02,,
-1.545600e-01,-6.680000e-02,,
-1.547867e-01,-7.360000e-02,,
-1.540933e-01,-7.586667e-02,,
-1.550133e-01,-8.280000e-02,,
-1.545600e-01,-7.586667e-02,,
-1.547867e-01,-7.586667e-02,,
-1.547867e-01,-7.133333e-02,,
-1.557067e-01,-8.960000e-02,,
-1.566400e-01,-8.280000e-02,,
-1.547867e-01,-9.186666e-02,,
-1.557067e-01,-7.813334e-02,,
-1.559467e-01,-8.733334e-02,,
-1.552533e-01,-9.426667e-02,,
-1.543200e-01,-9.880000e-02,,
-1.564133e-01,-1.148000e-01,,
-1.554800e-01,-1.125333e-01,,
-1.545600e-01,-1.080000e-01,,
-1.554800e-01,-1.193333e-01,,
-1.559467e-01,-1.216000e-01,,
-1.554800e-01,-1.216000e-01,,
-1.554800e-01,-1.080000e-01,,
-1.550133e-01,-1.080000e-01,,
-1.557067e-01,-1.102667e-01,,
-1.552533e-01,-1.193333e-01,,
-1.545600e-01,-1.240000e-01,,
-1.547867e-01,-1.193333e-01,,
-1.552533e-01,-1.170667e-01,,
-1.536267e-01,-1.400000e-01,,
-1.561733e-01,-1.353333e-01,,
-1.573333e-01,-1.400000e-01,,
-1.561733e-01,-1.400000e-01,,
-1.554800e-01,-1.400000e-01,,
-1.561733e-01,-1.262667e-01,,
-1.550133e-01,-1.468000e-01,,
-1.559467e-01,-1.468000e-01,,
-1.545600e-01,-1.445333e-01,,
-1.557067e-01,-1.468000e-01,,
-1.561733e-01,-1.582667e-01,,
-1.554800e-01,-1.628000e-01,,
-1.550133e-01,-1.720000e-01,,
-1.561733e-01,-1.582667e-01,,
-1.566400e-01,-1.697333e-01,,
-1.564133e-01,-1.697333e-01,,
-1.557067e-01,-1.834667e-01,,
-1.559467e-01,-1.720000e-01,,
-1.550133e-01,-1.742667e-01,,
-1.568667e-01,-1.650667e-01,,
-1.578000e-01,-1.742667e-01,,
-1.578000e-01,-1.812000e-01,,
-1.561733e-01,-2.040000e-01,,
-1.561733e-01,-1.880000e-01,,
-1.561733e-01,-2.017333e-01,,
-1.580267e-01,-1.812000e-01,,
-1.668267e-01,-1.925333e-01,,
-1.663733e-01,-1.972000e-01,,
-1.705333e-01,-1.902667e-01,,
-1.735467e-01,-1.880000e-01,,
-1.726267e-01,-1.994667e-01,,
-1.737867e-01,-2.109333e-01,,
-1.749467e-01,-2.154667e-01,,
-1.735467e-01,-2.292000e-01,,
-1.733200e-01,-2.406667e-01,,
-1.744800e-01,-2.085333e-01,,
-1.721600e-01,-2.085333e-01,,
-1.728533e-01,-2.109333e-01,,
-1.723867e-01,-2.314667e-01,,
-1.728533e-01,-2.200000e-01,,
-1.730933e-01,-2.337333e-01,,
-1.730933e-01,-2.292000e-01,,
-1.754000e-01,-2.474667e-01,,
-1.754000e-01,-2.314667e-01,,
-1.756400e-01,-2.337333e-01,,
-1.749467e-01,-2.497333e-01,,
-1.744800e-01,-2.634667e-01,,
-1.742400e-01,-2.314667e-01,,
-1.737867e-01,-2.544000e-01,,
-1.747067e-01,-2.497333e-01,,
-1.747067e-01,-2.634667e-01,,
-1.737867e-01,-2.520000e-01,,
-1.749467e-01,-2.589333e-01,,
-1.758666e-01,-2.544000e-01,,
-1.747067e-01,-2.634667e-01,,
-1.754000e-01,-2.474667e-01,,
-1.756400e-01,-2.589333e-01,,
-1.747067e-01,-2.634667e-01,,
-1.747067e-01,-2.589333e-01,,
-1.749467e-01,-2.841333e-01,,
-1.754000e-01,-2.772000e-01,,
-1.747067e-01,-2.749333e-01,,
-1.760933e-01,-2.932000e-01,,
-1.747067e-01,-2.749333e-01,,
-1.756400e-01,-2.817333e-01,,
-1.763333e-01,-2.886667e-01,,
-1.749467e-01,-3.001333e-01,,
-1.754000e-01,-2.886667e-01,,
-1.742400e-01,-2.817333e-01,,
-1.754000e-01,-2.954667e-01,,
-1.749467e-01,-3.092000e-01,,
-1.772533e-01,-3.092000e-01,,
-1.742400e-01,-3.092000e-01,,
-1.758666e-01,-3.092000e-01,,
-1.749467e-01,-3.092000e-01,,
-1.768000e-01,-3.046667e-01,,
-1.754000e-01,-3.229333e-01,,
-1.768000e-01,-3.161334e-01,,
-1.765600e-01,-3.114667e-01,,
-1.758666e-01,-3.229333e-01,,
-1.749467e-01,-3.321333e-01,,
-1.770267e-01,-3.344000e-01,,
-1.765600e-01,-3.436000e-01,,
-1.763333e-01,-3.206667e-01,,
-1.772533e-01,-3.366667e-01,,
-1.765600e-01,-3.298667e-01,,
-1.751733e-01,-3.458667e-01,,
-1.768000e-01,-3.298667e-01,,
-1.758666e-01,-3.481333e-01,,
-1.765600e-01,-3.504000e-01,,
-1.763333e-01,-3.481333e-01,,
-1.763333e-01,-3.412000e-01,,
-1.765600e-01,-3.412000e-01,,
-1.749467e-01,-3.526667e-01,,
-1.756400e-01,-3.549334e-01,,
-1.760933e-01,-3.618667e-01,,
-1.760933e-01,-3.641333e-01,,
-1.751733e-01,-3.641333e-01,,
-1.754000e-01,-3.709333e-01,,
-1.772533e-01,-3.596000e-01,,
-1.758666e-01,-3.641333e-01,,
-1.751733e-01,-3.733333e-01,,
-1.858267e-01,-3.756000e-01,,
-1.955600e-01,-3.618667e-01,,
-1.960267e-01,-3.870667e-01,,
-2.046000e-01,-3.846667e-01,,
-2.052933e-01,-3.664000e-01,,
-2.076000e-01,-3.801333e-01,,
-2.055200e-01,-3.778667e-01,,
-2.062133e-01,-3.686667e-01,,
-2.062133e-01,-3.961333e-01,,
-2.073733e-01,-3.870667e-01,,
-2.052933e-01,-3.961333e-01,,
-2.062133e-01,-3.846667e-01,,
-2.064533e-01,-4.008000e-01,,
-2.052933e-01,-3.984000e-01,,
-2.055200e-01,-4.098667e-01,,
-2.041333e-01,-3.916000e-01,,
-2.064533e-01,-4.030667e-01,,
-2.069066e-01,-4.098667e-01,,
-2.080667e-01,-4.168000e-01,,
-2.073733e-01,-4.168000e-01,,
-2.071466e-01,-4.236000e-01,,
-2.069066e-01,-4.121333e-01,,
-2.064533e-01,-4.258667e-01,,
-2.076000e-01,-4.305333e-01,,
-2.073733e-01,-4.213333e-01,,
-2.099200e-01,-4.121333e-01,,
-2.069066e-01,-4.350667e-01,,
-2.076000e-01,-4.396000e-01,,
-2.069066e-01,-4.373333e-01,,
-2.080667e-01,-4.396000e-01,,
-2.083067e-01,-4.488000e-01,,
-2.092267e-01,-4.373333e-01,,
-2.071466e-01,-4.488000e-01,,
-2.080667e-01,-4.441333e-01,,
-2.087600e-01,-4.648000e-01,,
-2.099200e-01,-4.441333e-01,,
-2.090000e-01,-4.556000e-01,,
-2.094533e-01,-4.602667e-01,,
-2.087600e-01,-4.533333e-01,,
-2.087600e-01,-4.510667e-01,,
-2.090000e-01,-4.602667e-01,,
-2.087600e-01,-4.556000e-01,,
-2.094533e-01,-4.670667e-01,,
-2.083067e-01,-4.762667e-01,,
-2.083067e-01,-4.762667e-01,,
-2.096933e-01,-4.740000e-01,,
-2.094533e-01,-4.808000e-01,,
-2.108533e-01,-4.762667e-01,,
-2.083067e-01,-4.785333e-01,,
-2.087600e-01,-4.740000e-01,,
-2.087600e-01,-4.830667e-01,,
-2.090000e-01,-4.808000e-01,,
-2.096933e-01,-4.900000e-01,,
-2.085333e-01,-4.876000e-01,,
-2.085333e-01,-4.945333e-01,,
-2.090000e-01,-4.876000e-01,,
-2.094533e-01,-4.990667e-01,,
-2.092267e-01,-4.922667e-01,,
-2.080667e-01,-4.968000e-01,,
-2.092267e-01,-5.105333e-01,,
-2.087600e-01,-5.173333e-01,,
-2.076000e-01,-4.922667e-01,,
-2.090000e-01,-5.128000e-01,,
-2.087600e-01,-5.220000e-01,,
-2.078400e-01,-5.220000e-01,,
-2.108533e-01,-5.105333e-01,,
-2.094533e-01,-5.013334e-01,,
-2.096933e-01,-5.220000e-01,,
-2.087600e-01,-5.220000e-01,,
-2.076000e-01,-5.060000e-01,,
-2.110800e-01,-5.380000e-01,,
-2.085333e-01,-5.220000e-01,,
-2.078400e-01,-5.310667e-01,,
-2.103866e-01,-5.380000e-01,,
-2.092267e-01,-5.310667e-01,,
-2.110800e-01,-5.425333e-01,,
-2.134000e-01,-5.448000e-01,,
-2.178000e-01,-5.220000e-01,,
-2.180267e-01,-5.425333e-01,,
-2.219733e-01,-5.380000e-01,,
-2.212800e-01,-5.425333e-01,,
-2.224267e-01,-5.310667e-01,,
-2.205733e-01,-5.494667e-01,,
-2.222000e-01,-5.425333e-01,,
-2.222000e-01,-5.540000e-01,,
-2.233600e-01,-5.494667e-01,,
-2.231333e-01,-5.722667e-01,,
-2.217333e-01,-5.448000e-01,,
-2.222000e-01,-5.677333e-01,,
-2.224267e-01,-5.585333e-01,,
-2.240533e-01,-5.562667e-01,,
-2.238266e-01,-5.608000e-01,,
-2.217333e-01,-5.722667e-01,,
-2.224267e-01,-5.654667e-01,,
-2.219733e-01,-5.905333e-01,,
-2.240533e-01,-5.792000e-01,,
-2.233600e-01,-5.722667e-01,,
-2.233600e-01,-5.792000e-01,,
-2.240533e-01,-5.722667e-01,,
-2.222000e-01,-5.769333e-01,,
-2.240533e-01,-5.905333e-01,,
-2.242800e-01,-5.792000e-01,,
-2.228933e-01,-5.837333e-01,,
-2.235866e-01,-5.952000e-01,,
-2.231333e-01,-5.860000e-01,,
-2.224267e-01,-5.837333e-01,,
-2.219733e-01,-5.997334e-01,,
-2.238266e-01,-5.974666e-01,,
-2.238266e-01,-6.066667e-01,,
-2.242800e-01,-6.112000e-01,,
-2.228933e-01,-5.952000e-01,,
-2.242800e-01,-6.112000e-01,,
-2.240533e-01,-6.157333e-01,,
-2.238266e-01,-6.042667e-01,,
-2.228933e-01,-6.020000e-01,,
-2.231333e-01,-6.204000e-01,,
-2.235866e-01,-6.204000e-01,,
-2.233600e-01,-6.020000e-01,,
-2.240533e-01,-6.546667e-01,,
-2.231333e-01,-6.089333e-01,,
-2.242800e-01,-6.204000e-01,,
-2.238266e-01,-6.157333e-01,,
-2.235866e-01,-6.249334e-01,,
-2.238266e-01,-6.340000e-01,,
-2.247466e-01,-6.364000e-01,,
-2.233600e-01,-6.386667e-01,,
-2.249867e-01,-6.432000e-01,,
-2.242800e-01,-6.432000e-01,,
-2.242800e-01,-6.477333e-01,,
-2.231333e-01,-6.226667e-01,,
-2.240533e-01,-6.524000e-01,,
-2.238266e-01,-6.294667e-01,,
-2.245200e-01,-6.501333e-01,,
-2.242800e-01,-6.592000e-01,,
-2.240533e-01,-6.454667e-01,,
-2.245200e-01,-6.409333e-01,,
-2.240533e-01,-6.569334e-01,,
-2.238266e-01,-6.569334e-01,,
-2.249867e-01,-6.661333e-01,,
-2.238266e-01,-6.661333e-01,,
-2.247466e-01,-6.661333e-01,,
-2.254400e-01,-6.614667e-01,,
-2.252133e-01,-6.592000e-01,,
-2.238266e-01,-6.592000e-01,,
-2.249867e-01,-6.729333e-01,,
-2.249867e-01,-6.706667e-01,,
-2.240533e-01,-6.706667e-01,,
-2.245200e-01,-6.729333e-01,,
-2.238266e-01,-6.774667e-01,,
-2.245200e-01,-6.798667e-01,,
-2.238266e-01,-6.844000e-01,,
-2.242800e-01,-6.798667e-01,,
-2.252133e-01,-6.844000e-01,,
-2.319333e-01,-6.774667e-01,,
-2.314667e-01,-6.912000e-01,,
-2.333200e-01,-6.844000e-01,,
-2.361066e-01,-6.958667e-01,,
-2.372533e-01,-6.844000e-01,,
-2.363333e-01,-6.866667e-01,,
-2.358667e-01,-7.049333e-01,,
-2.368000e-01,-6.981333e-01,,
-2.370266e-01,-7.004000e-01,,
-2.354000e-01,-6.981333e-01,,
-2.374933e-01,-7.026667e-01,,
-2.349467e-01,-7.004000e-01,,
-2.379600e-01,-6.936000e-01,,
-2.370266e-01,-7.233334e-01,,
-2.368000e-01,-6.958667e-01,,
-2.368000e-01,-7.233334e-01,,
-2.363333e-01,-7.141333e-01,,
-2.384133e-01,-7.233334e-01,,
-2.379600e-01,-7.186667e-01,,
-2.374933e-01,-7.301334e-01,,
-2.379600e-01,-7.118667e-01,,
-2.377200e-01,-7.209333e-01,,
-2.370266e-01,-7.186667e-01,,
-2.372533e-01,-7.233334e-01,,
-2.374933e-01,-7.209333e-01,,
-2.372533e-01,-7.324000e-01,,
-2.368000e-01,-7.278666e-01,,
-2.368000e-01,-7.278666e-01,,
-2.386533e-01,-7.324000e-01,,
-2.370266e-01,-7.324000e-01,,
-2.384133e-01,-7.369334e-01,,
-2.368000e-01,-7.438667e-01,,
-2.384133e-01,-7.278666e-01,,
-2.384133e-01,-7.346666e-01,,
-2.381866e-01,-7.369334e-01,,
-2.395733e-01,-7.530667e-01,,
-2.374933e-01,-7.393333e-01,,
-2.374933e-01,-7.530667e-01,,
-2.379600e-01,-7.484000e-01,,
-2.391067e-01,-7.553334e-01,,
-2.372533e-01,-7.278666e-01,,
-2.386533e-01,-7.553334e-01,,
-2.374933e-01,-7.484000e-01,,
-2.374933e-01,-7.506667e-01,,
-2.372533e-01,-7.346666e-01,,
-2.398133e-01,-7.668000e-01,,
-2.379600e-01,-7.576000e-01,,
-2.374933e-01,-7.896000e-01,,
-2.391067e-01,-7.506667e-01,,
-2.384133e-01,-7.668000e-01,,
-2.386533e-01,-7.530667e-01,,
-2.381866e-01,-7.781333e-01,,
-2.391067e-01,-7.644000e-01,,
-2.379600e-01,-7.828000e-01,,
-2.386533e-01,-7.598667e-01,,
-2.372533e-01,-7.896000e-01,,
-2.405066e-01,-7.621334e-01,,
-2.386533e-01,-7.758667e-01,,
-2.400400e-01,-7.484000e-01,,
-2.374933e-01,-7.850667e-01,,
-2.391067e-01,-7.828000e-01,,
-2.384133e-01,-7.736000e-01,,
-2.379600e-01,-7.736000e-01,,
-2.377200e-01,-7.896000e-01,,
-2.386533e-01,-7.713333e-01,,
-2.379600e-01,-7.736000e-01,,
-2.400400e-01,-7.758667e-01,,
-2.374933e-01,-7.850667e-01,,
-2.391067e-01,-7.828000e-01,,
-2.386533e-01,-7.918667e-01,,
-2.370266e-01,-7.850667e-01,,
-2.386533e-01,-8.056000e-01,,
-2.391067e-01,-7.873334e-01,,
-2.381866e-01,-7.988000e-01,,
-2.386533e-01,-8.033333e-01,,
-2.393467e-01,-8.056000e-01,,
-2.409600e-01,-7.941334e-01,,
-2.446667e-01,-8.010667e-01,,
-2.451333e-01,-7.918667e-01,,
-2.474533e-01,-8.170667e-01,,
-2.483733e-01,-8.033333e-01,,
-2.486133e-01,-8.056000e-01,,
-2.474533e-01,-7.988000e-01,,
-2.481467e-01,-8.285334e-01,,
-2.490800e-01,-8.125333e-01,,
-2.472267e-01,-8.193333e-01,,
-2.476800e-01,-8.056000e-01,,
-2.488400e-01,-8.262666e-01,,
-2.488400e-01,-8.170667e-01,,
-2.481467e-01,-8.285334e-01,,
-2.488400e-01,-8.193333e-01,,
-2.488400e-01,-8.170667e-01,,
-2.500000e-01,-8.308000e-01,,
-2.486133e-01,-8.193333e-01,,
-2.481467e-01,-8.125333e-01,,
-2.486133e-01,-8.308000e-01,,
-2.497733e-01,-8.330667e-01,,
-2.493066e-01,-8.262666e-01,,
-2.483733e-01,-8.445333e-01,,
-2.488400e-01,-8.262666e-01,,
-2.483733e-01,-8.330667e-01,,
-2.476800e-01,-8.330667e-01,,
-2.479200e-01,-8.262666e-01,,
-2.493066e-01,-8.513333e-01,,
-2.490800e-01,-8.170667e-01,,
-2.488400e-01,-8.238667e-01,,
-2.493066e-01,-8.468000e-01,,
-2.490800e-01,-8.468000e-01,,
-2.476800e-01,-8.422667e-01,,
-2.474533e-01,-8.445333e-01,,
-2.500000e-01,-8.376000e-01,,
-2.479200e-01,-8.513333e-01,,
-2.500000e-01,-8.468000e-01,,
-2.488400e-01,-8.490667e-01,,
-2.509333e-01,-8.560000e-01,,
-2.490800e-01,-8.468000e-01,,
-2.495333e-01,-8.376000e-01,,
-2.476800e-01,-8.490667e-01,,
-2.516266e-01,-8.445333e-01,,
-2.493066e-01,-8.560000e-01,,
-2.511600e-01,-8.468000e-01,,
-2.495333e-01,-8.673334e-01,,
-2.495333e-01,-8.445333e-01,,
-2.486133e-01,-8.560000e-01,,
-2.497733e-01,-8.445333e-01,,
-2.490800e-01,-8.697333e-01,,
-2.502266e-01,-8.605334e-01,,
-2.493066e-01,-8.628000e-01,,
-2.500000e-01,-8.810667e-01,,
-2.481467e-01,-8.536000e-01,,
-2.493066e-01,-8.650666e-01,,
-2.488400e-01,-8.673334e-01,,
-2.493066e-01,-8.468000e-01,,
-2.483733e-01,-8.742667e-01,,
-2.504666e-01,-8.673334e-01,,
-2.486133e-01,-8.742667e-01,,
-2.500000e-01,-8.628000e-01,,
-2.486133e-01,-8.582667e-01,,
-2.495333e-01,-8.720000e-01,,
-2.490800e-01,-8.833333e-01,,
-2.504666e-01,-8.673334e-01,,
-2.495333e-01,-8.788000e-01,,
-2.511600e-01,-8.902667e-01,,
-2.504666e-01,-8.833333e-01,,
-2.500000e-01,-8.765333e-01,,
-2.493066e-01,-8.925334e-01,,
-2.495333e-01,-8.720000e-01,,
-2.476800e-01,-8.810667e-01,,
-2.493066e-01,-8.833333e-01,,
-2.488400e-01,-8.880000e-01,,
-2.495333e-01,-8.925334e-01,,
-2.500000e-01,-8.994667e-01,,
-2.527866e-01,-8.833333e-01,,
-2.539333e-01,-8.948000e-01,,
-2.539333e-01,-8.902667e-01,,
-2.567200e-01,-8.970667e-01,,
-2.560267e-01,-8.765333e-01,,
-2.555600e-01,-8.902667e-01,,
-2.578800e-01,-8.810667e-01,,
-2.574133e-01,-8.994667e-01,,
-2.567200e-01,-8.948000e-01,,
-2.571867e-01,-9.017333e-01,,
-2.574133e-01,-8.970667e-01,,
-2.574133e-01,-9.062667e-01,,
-2.581066e-01,-8.902667e-01,,
-2.567200e-01,-9.108000e-01,,
-2.576400e-01,-9.062667e-01,,
-2.569467e-01,-9.040000e-01,,
-2.571867e-01,-9.017333e-01,,
-2.585733e-01,-9.062667e-01,,
-2.564933e-01,-9.062667e-01,,
-2.585733e-01,-9.222667e-01,,
-2.567200e-01,-8.994667e-01,,
-2.555600e-01,-8.970667e-01,,
-2.574133e-01,-9.040000e-01,,
-2.574133e-01,-9.062667e-01,,
-2.560267e-01,-8.925334e-01,,
-2.569467e-01,-9.132000e-01,,
-2.578800e-01,-9.017333e-01,,
-2.564933e-01,-9.132000e-01,,
-2.560267e-01,-9.132000e-01,,
-2.567200e-01,-9.062667e-01,,
-2.578800e-01,-9.200000e-01,,
-2.588000e-01,-9.154667e-01,,
-2.590400e-01,-9.200000e-01,,
-2.578800e-01,-9.177334e-01,,
-2.578800e-01,-8.994667e-01,,
-2.574133e-01,-9.222667e-01,,
-2.590400e-01,-9.314667e-01,,
-2.576400e-01,-9.200000e-01,,
-2.581066e-01,-9.108000e-01,,
-2.578800e-01,-9.382667e-01,,
-2.585733e-01,-9.245334e-01,,
-2.578800e-01,-9.405333e-01,,
-2.583466e-01,-9.268000e-01,,
-2.581066e-01,-9.382667e-01,,
-2.590400e-01,-9.085333e-01,,
-2.578800e-01,-9.222667e-01,,
-2.588000e-01,-9.177334e-01,,
-2.590400e-01,-9.292000e-01,,
-2.578800e-01,-9.292000e-01,,
-2.574133e-01,-9.314667e-01,,
-2.576400e-01,-9.154667e-01,,
-2.578800e-01,-9.314667e-01,,
-2.583466e-01,-9.177334e-01,,
-2.574133e-01,-9.337333e-01,,
-2.583466e-01,-9.245334e-01,,
-2.581066e-01,-9.429333e-01,,
-2.578800e-01,-9.177334e-01,,
-2.590400e-01,-9.474667e-01,,
-2.594933e-01,-9.337333e-01,,
-2.581066e-01,-9.474667e-01,,
-2.583466e-01,-9.360000e-01,,
-2.567200e-01,-9.245334e-01,,
-2.585733e-01,-9.292000e-01,,
-2.592666e-01,-9.405333e-01,,
-2.581066e-01,-9.429333e-01,,
-2.585733e-01,-9.452000e-01,,
-2.592666e-01,-9.337333e-01,,
-2.576400e-01,-9.382667e-01,,
-2.578800e-01,-9.337333e-01,,
-2.581066e-01,-9.360000e-01,,
-2.590400e-01,-9.382667e-01,,
-2.583466e-01,-9.382667e-01,,
-2.574133e-01,-9.382667e-01,,
-2.578800e-01,-9.474667e-01,,
-2.578800e-01,-9.382667e-01,,
-2.585733e-01,-9.452000e-01,,
-2.571867e-01,-9.429333e-01,,
-2.602000e-01,-9.382667e-01,,
-2.627467e-01,-9.474667e-01,,
-2.636667e-01,-9.474667e-01,,
-2.652933e-01,-9.337333e-01,,
-2.646000e-01,-9.542667e-01,,
-2.650533e-01,-9.382667e-01,,
-2.650533e-01,-9.429333e-01,,
-2.659867e-01,-9.452000e-01,,
-2.659867e-01,-9.565334e-01,,
-2.659867e-01,-9.429333e-01,,
-2.659867e-01,-9.542667e-01,,
-2.641333e-01,-9.314667e-01,,
-2.641333e-01,-9.474667e-01,,
-2.646000e-01,-9.474667e-01,,
-2.646000e-01,-9.565334e-01,,
-2.646000e-01,-9.452000e-01,,
-2.646000e-01,-9.520000e-01,,
-2.657600e-01,-9.452000e-01,,
-2.657600e-01,-9.452000e-01,,
-2.662133e-01,-9.474667e-01,,
-2.652933e-01,-9.634667e-01,,
-2.662133e-01,-9.542667e-01,,
-2.664533e-01,-9.565334e-01,,
-2.641333e-01,-9.589334e-01,,
-2.648267e-01,-9.565334e-01,,
-2.655200e-01,-9.314667e-01,,
-2.657600e-01,-9.589334e-01,,
-2.657600e-01,-9.542667e-01,,
-2.646000e-01,-9.565334e-01,,
-2.669066e-01,-9.474667e-01,,
-2.657600e-01,-9.680000e-01,,
-2.659867e-01,-9.429333e-01,,
-2.641333e-01,-9.474667e-01,,
-2.662133e-01,-9.520000e-01,,
-2.657600e-01,-9.680000e-01,,
-2.662133e-01,-9.474667e-01,,
-2.652933e-01,-9.634667e-01,,
-2.671466e-01,-9.497333e-01,,
-2.657600e-01,-9.589334e-01,,
-2.676133e-01,-9.474667e-01,,
-2.657600e-01,-9.565334e-01,,
-2.669066e-01,-9.589334e-01,,
-2.659867e-01,-9.497333e-01,,
-2.669066e-01,-9.565334e-01,,
-2.659867e-01,-9.542667e-01,,
-2.657600e-01,-9.520000e-01,,
-2.659867e-01,-9.772000e-01,,
-2.664533e-01,-9.589334e-01,,
-2.669066e-01,-9.749333e-01,,
-2.671466e-01,-9.589334e-01,,
-2.664533e-01,-9.726667e-01,,
-2.673733e-01,-9.565334e-01,,
-2.669066e-01,-9.589334e-01,,
-2.657600e-01,-9.542667e-01,,
-2.659867e-01,-9.589334e-01,,
-2.650533e-01,-9.542667e-01,,
-2.671466e-01,-9.612000e-01,,
-2.659867e-01,-9.772000e-01,,
-2.666800e-01,-9.702667e-01,,
-2.676133e-01,-9.589334e-01,,
-2.666800e-01,-9.589334e-01,,
-2.673733e-01,-9.702667e-01,,
-2.669066e-01,-9.520000e-01,,
-2.669066e-01,-9.612000e-01,,
-2.662133e-01,-9.772000e-01,,
-2.657600e-01,-9.452000e-01,,
-2.657600e-01,-9.589334e-01,,
-2.669066e-01,-9.612000e-01,,
-2.664533e-01,-9.589334e-01,,
-2.664533e-01,-9.657333e-01,,
-2.652933e-01,-9.634667e-01,,
-2.673733e-01,-9.337333e-01,,
-2.662133e-01,-9.542667e-01,,
-2.669066e-01,-9.612000e-01,,
-2.662133e-01,-9.772000e-01,,
-2.673733e-01,-9.589334e-01,,
-2.701600e-01,-9.634667e-01,,
-2.708533e-01,-9.612000e-01,,
-2.710800e-01,-9.680000e-01,,
-2.717733e-01,-9.520000e-01,,
-2.715467e-01,-9.680000e-01,,
-2.729333e-01,-9.565334e-01,,
-2.731733e-01,-9.726667e-01,,
-2.720133e-01,-9.657333e-01,,
-2.715467e-01,-9.680000e-01,,
-2.720133e-01,-9.680000e-01,,
-2.710800e-01,-9.749333e-01,,
-2.729333e-01,-9.634667e-01,,
-2.706133e-01,-9.634667e-01,,
-2.731733e-01,-9.565334e-01,,
-2.731733e-01,-9.680000e-01,,
-2.703866e-01,-9.429333e-01,,
-2.703866e-01,-9.702667e-01,,
-2.715467e-01,-9.497333e-01,,
-2.717733e-01,-9.565334e-01,,
-2.729333e-01,-9.520000e-01,,
-2.703866e-01,-9.794667e-01,,
-2.708533e-01,-9.497333e-01,,
-2.722400e-01,-9.726667e-01,,
-2.724667e-01,-9.429333e-01,,
-2.713200e-01,-9.634667e-01,,
-2.731733e-01,-9.474667e-01,,
-2.715467e-01,-9.497333e-01,,
-2.738667e-01,-9.612000e-01,,
-2.708533e-01,-9.612000e-01,,
-2.727067e-01,-9.634667e-01,,
-2.722400e-01,-9.589334e-01,,
-2.708533e-01,-9.474667e-01,,
-2.722400e-01,-9.726667e-01,,
-2.724667e-01,-9.497333e-01,,
-2.720133e-01,-9.634667e-01,,
-2.729333e-01,-9.520000e-01,,
-2.724667e-01,-9.565334e-01,,
