main/RLC/Derek_experiment/data/notch_500khz1.csv

CH1V,CH2V,t0 =-4.880000e-05, tInc = 1.000000e-07,
+4.373333e-03,-8.422667e-01,,
+3.906666e-03,-8.330667e-01,,
+2.746667e-03,-8.468000e-01,,
+4.133333e-03,-8.513333e-01,,
+4.373333e-03,-8.400000e-01,,
+3.906666e-03,-8.422667e-01,,
+4.133333e-03,-8.445333e-01,,
+2.280000e-03,-8.400000e-01,,
+2.973333e-03,-8.445333e-01,,
+4.600000e-03,-8.376000e-01,,
+2.973333e-03,-8.513333e-01,,
+3.213333e-03,-8.445333e-01,,
+2.520000e-03,-8.513333e-01,,
+2.746667e-03,-8.536000e-01,,
+2.520000e-03,-8.560000e-01,,
+3.680000e-03,-8.422667e-01,,
+3.906666e-03,-8.628000e-01,,
+4.133333e-03,-8.513333e-01,,
+3.213333e-03,-8.605334e-01,,
+3.213333e-03,-8.445333e-01,,
+2.280000e-03,-8.605334e-01,,
+4.373333e-03,-8.582667e-01,,
+4.600000e-03,-8.582667e-01,,
+4.373333e-03,-8.628000e-01,,
+3.440000e-03,-8.673334e-01,,
+3.213333e-03,-8.536000e-01,,
+3.440000e-03,-8.742667e-01,,
+3.680000e-03,-8.673334e-01,,
+2.746667e-03,-8.788000e-01,,
+5.066666e-03,-8.650666e-01,,
+3.906666e-03,-8.765333e-01,,
+2.520000e-03,-8.673334e-01,,
+3.440000e-03,-8.788000e-01,,
+4.133333e-03,-8.810667e-01,,
+3.906666e-03,-8.697333e-01,,
+4.373333e-03,-8.673334e-01,,
+4.133333e-03,-8.788000e-01,,
+3.440000e-03,-8.833333e-01,,
+5.293333e-03,-8.833333e-01,,
+4.133333e-03,-8.720000e-01,,
+3.680000e-03,-8.833333e-01,,
+3.440000e-03,-8.810667e-01,,
+5.066666e-03,-8.880000e-01,,
+3.680000e-03,-8.857334e-01,,
+3.213333e-03,-8.925334e-01,,
+4.600000e-03,-9.040000e-01,,
+4.133333e-03,-8.880000e-01,,
+4.373333e-03,-8.720000e-01,,
+3.906666e-03,-9.017333e-01,,
+3.906666e-03,-8.902667e-01,,
+4.133333e-03,-8.994667e-01,,
+4.373333e-03,-9.062667e-01,,
+5.066666e-03,-8.970667e-01,,
+4.373333e-03,-8.833333e-01,,
+3.906666e-03,-9.062667e-01,,
+5.066666e-03,-8.902667e-01,,
+3.440000e-03,-9.062667e-01,,
+4.826666e-03,-8.948000e-01,,
+3.906666e-03,-9.017333e-01,,
+3.440000e-03,-8.970667e-01,,
+3.906666e-03,-9.132000e-01,,
+3.680000e-03,-8.948000e-01,,
+4.133333e-03,-9.062667e-01,,
+2.973333e-03,-8.902667e-01,,
+2.746667e-03,-9.154667e-01,,
+3.906666e-03,-8.994667e-01,,
+4.600000e-03,-9.222667e-01,,
+3.680000e-03,-9.040000e-01,,
+4.600000e-03,-9.154667e-01,,
+3.906666e-03,-8.994667e-01,,
+3.440000e-03,-9.085333e-01,,
+3.906666e-03,-9.154667e-01,,
+2.973333e-03,-9.245334e-01,,
+4.826666e-03,-9.222667e-01,,
+3.906666e-03,-9.360000e-01,,
+5.066666e-03,-9.177334e-01,,
+3.906666e-03,-9.200000e-01,,
+3.906666e-03,-9.245334e-01,,
+4.133333e-03,-9.314667e-01,,
+4.600000e-03,-9.040000e-01,,
+4.373333e-03,-9.337333e-01,,
+3.213333e-03,-9.292000e-01,,
+3.213333e-03,-9.292000e-01,,
+4.826666e-03,-9.132000e-01,,
+3.213333e-03,-9.474667e-01,,
+5.760000e-03,-9.292000e-01,,
+5.066666e-03,-9.497333e-01,,
+4.373333e-03,-9.292000e-01,,
+4.133333e-03,-9.292000e-01,,
+5.293333e-03,-9.314667e-01,,
+2.973333e-03,-9.337333e-01,,
+5.533333e-03,-9.314667e-01,,
+4.133333e-03,-9.314667e-01,,
+5.066666e-03,-9.292000e-01,,
+4.133333e-03,-9.405333e-01,,
+5.293333e-03,-9.268000e-01,,
+4.826666e-03,-9.382667e-01,,
+3.440000e-03,-9.382667e-01,,
+3.906666e-03,-9.452000e-01,,
+5.293333e-03,-9.245334e-01,,
+3.440000e-03,-9.405333e-01,,
+5.986666e-03,-9.337333e-01,,
+5.066666e-03,-9.474667e-01,,
+4.373333e-03,-9.382667e-01,,
+4.600000e-03,-9.405333e-01,,
+5.533333e-03,-9.474667e-01,,
+3.906666e-03,-9.520000e-01,,
+5.760000e-03,-9.245334e-01,,
+2.520000e-03,-9.474667e-01,,
+5.293333e-03,-9.405333e-01,,
+5.293333e-03,-9.474667e-01,,
+4.133333e-03,-9.452000e-01,,
+3.213333e-03,-9.382667e-01,,
+5.533333e-03,-9.245334e-01,,
+3.440000e-03,-9.657333e-01,,
+5.533333e-03,-9.429333e-01,,
+4.133333e-03,-9.497333e-01,,
+5.533333e-03,-9.497333e-01,,
+4.826666e-03,-9.429333e-01,,
+4.133333e-03,-9.452000e-01,,
+5.066666e-03,-9.565334e-01,,
+5.533333e-03,-9.565334e-01,,
+5.293333e-03,-9.589334e-01,,
+5.533333e-03,-9.360000e-01,,
+3.440000e-03,-9.520000e-01,,
+4.826666e-03,-9.452000e-01,,
+5.293333e-03,-9.429333e-01,,
+4.373333e-03,-9.292000e-01,,
+5.293333e-03,-9.565334e-01,,
+4.826666e-03,-9.497333e-01,,
+4.133333e-03,-9.542667e-01,,
+3.213333e-03,-9.520000e-01,,
+2.746667e-03,-9.589334e-01,,
+4.600000e-03,-9.497333e-01,,
+4.133333e-03,-9.589334e-01,,
+4.373333e-03,-9.474667e-01,,
+3.680000e-03,-9.612000e-01,,
+5.066666e-03,-9.634667e-01,,
+5.986666e-03,-9.474667e-01,,
+5.066666e-03,-9.520000e-01,,
+4.133333e-03,-9.612000e-01,,
+6.226666e-03,-9.542667e-01,,
+4.373333e-03,-9.680000e-01,,
+4.826666e-03,-9.452000e-01,,
+3.213333e-03,-9.634667e-01,,
+4.373333e-03,-9.612000e-01,,
+5.066666e-03,-9.589334e-01,,
+4.600000e-03,-9.520000e-01,,
+4.133333e-03,-9.634667e-01,,
+5.066666e-03,-9.565334e-01,,
+3.440000e-03,-9.749333e-01,,
+4.826666e-03,-9.749333e-01,,
+3.440000e-03,-9.772000e-01,,
+3.680000e-03,-9.497333e-01,,
+4.600000e-03,-9.565334e-01,,
+4.826666e-03,-9.657333e-01,,
+4.600000e-03,-9.634667e-01,,
+6.226666e-03,-9.497333e-01,,
+4.600000e-03,-9.794667e-01,,
+5.533333e-03,-9.474667e-01,,
+4.133333e-03,-9.772000e-01,,
+5.760000e-03,-9.565334e-01,,
+5.293333e-03,-9.726667e-01,,
+5.066666e-03,-9.565334e-01,,
+3.213333e-03,-9.680000e-01,,
+4.826666e-03,-9.520000e-01,,
+5.293333e-03,-9.817333e-01,,
+5.066666e-03,-9.565334e-01,,
+3.906666e-03,-9.634667e-01,,
+5.533333e-03,-9.634667e-01,,
+4.600000e-03,-9.702667e-01,,
+5.533333e-03,-9.589334e-01,,
+4.600000e-03,-9.680000e-01,,
+4.373333e-03,-9.520000e-01,,
+4.600000e-03,-9.702667e-01,,
+3.213333e-03,-9.520000e-01,,
+6.453333e-03,-9.817333e-01,,
+6.226666e-03,-9.634667e-01,,
+4.826666e-03,-9.702667e-01,,
+5.066666e-03,-9.612000e-01,,
+4.826666e-03,-9.634667e-01,,
+4.826666e-03,-9.497333e-01,,
+4.373333e-03,-9.680000e-01,,
+5.533333e-03,-9.542667e-01,,
+3.906666e-03,-9.657333e-01,,
+5.986666e-03,-9.702667e-01,,
+3.906666e-03,-9.657333e-01,,
+5.066666e-03,-9.452000e-01,,
+4.600000e-03,-9.702667e-01,,
+5.293333e-03,-9.474667e-01,,
+4.133333e-03,-9.589334e-01,,
+4.826666e-03,-9.520000e-01,,
+6.226666e-03,-9.612000e-01,,
+4.373333e-03,-9.497333e-01,,
+5.760000e-03,-9.520000e-01,,
+3.213333e-03,-9.589334e-01,,
+3.440000e-03,-9.565334e-01,,
+4.826666e-03,-9.474667e-01,,
+5.293333e-03,-9.589334e-01,,
+5.986666e-03,-9.520000e-01,,
+4.373333e-03,-9.612000e-01,,
+5.760000e-03,-9.497333e-01,,
+5.293333e-03,-9.520000e-01,,
+4.826666e-03,-9.474667e-01,,
+4.373333e-03,-9.474667e-01,,
+3.906666e-03,-9.657333e-01,,
+6.226666e-03,-9.657333e-01,,
+3.680000e-03,-9.405333e-01,,
+4.373333e-03,-9.634667e-01,,
+4.826666e-03,-9.405333e-01,,
+5.533333e-03,-9.680000e-01,,
+5.760000e-03,-9.497333e-01,,
+4.373333e-03,-9.452000e-01,,
+4.826666e-03,-9.405333e-01,,
+5.293333e-03,-9.497333e-01,,
+5.986666e-03,-9.497333e-01,,
+4.133333e-03,-9.474667e-01,,
+5.066666e-03,-9.382667e-01,,
+5.293333e-03,-9.612000e-01,,
+5.986666e-03,-9.405333e-01,,
+4.133333e-03,-9.382667e-01,,
+5.066666e-03,-9.657333e-01,,
+5.066666e-03,-9.520000e-01,,
+4.826666e-03,-9.360000e-01,,
+4.133333e-03,-9.405333e-01,,
+5.293333e-03,-9.337333e-01,,
+5.293333e-03,-9.520000e-01,,
+4.600000e-03,-9.452000e-01,,
+4.133333e-03,-9.520000e-01,,
+5.293333e-03,-9.222667e-01,,
+5.066666e-03,-9.429333e-01,,
+5.986666e-03,-9.405333e-01,,
+3.440000e-03,-9.452000e-01,,
+5.066666e-03,-9.452000e-01,,
+5.760000e-03,-9.405333e-01,,
+4.373333e-03,-9.314667e-01,,
+5.293333e-03,-9.429333e-01,,
+5.986666e-03,-9.222667e-01,,
+3.213333e-03,-9.452000e-01,,
+5.066666e-03,-9.292000e-01,,
+4.600000e-03,-9.292000e-01,,
+6.226666e-03,-9.292000e-01,,
+6.226666e-03,-9.382667e-01,,
+4.826666e-03,-9.360000e-01,,
+5.293333e-03,-9.314667e-01,,
+5.533333e-03,-9.177334e-01,,
+5.066666e-03,-9.337333e-01,,
+4.826666e-03,-9.132000e-01,,
+4.133333e-03,-9.245334e-01,,
+5.533333e-03,-9.382667e-01,,
+6.226666e-03,-9.314667e-01,,
+5.293333e-03,-9.292000e-01,,
+6.226666e-03,-9.222667e-01,,
+5.293333e-03,-9.177334e-01,,
+5.533333e-03,-9.292000e-01,,
+5.986666e-03,-9.177334e-01,,
+4.826666e-03,-9.268000e-01,,
+6.680000e-03,-9.132000e-01,,
+6.453333e-03,-9.245334e-01,,
+5.066666e-03,-9.222667e-01,,
+4.826666e-03,-9.108000e-01,,
+6.226666e-03,-9.132000e-01,,
+6.453333e-03,-9.177334e-01,,
+4.826666e-03,-9.108000e-01,,
+6.226666e-03,-9.200000e-01,,
+5.760000e-03,-9.108000e-01,,
+6.226666e-03,-9.222667e-01,,
+4.373333e-03,-8.970667e-01,,
+4.133333e-03,-9.040000e-01,,
+4.826666e-03,-9.062667e-01,,
+4.600000e-03,-9.154667e-01,,
+3.906666e-03,-9.200000e-01,,
+3.906666e-03,-9.040000e-01,,
+5.760000e-03,-9.154667e-01,,
+5.293333e-03,-9.108000e-01,,
+4.373333e-03,-8.994667e-01,,
+4.600000e-03,-9.177334e-01,,
+5.066666e-03,-9.062667e-01,,
+5.066666e-03,-9.108000e-01,,
+5.760000e-03,-8.948000e-01,,
+5.066666e-03,-8.994667e-01,,
+5.760000e-03,-8.833333e-01,,
+5.293333e-03,-8.948000e-01,,
+5.533333e-03,-8.970667e-01,,
+2.973333e-03,-8.857334e-01,,
+6.680000e-03,-8.948000e-01,,
+5.293333e-03,-9.062667e-01,,
+5.986666e-03,-8.697333e-01,,
+4.826666e-03,-8.970667e-01,,
+5.533333e-03,-8.925334e-01,,
+4.133333e-03,-8.925334e-01,,
+4.826666e-03,-8.742667e-01,,
+4.133333e-03,-8.765333e-01,,
+5.066666e-03,-8.880000e-01,,
+4.373333e-03,-8.742667e-01,,
+5.293333e-03,-8.902667e-01,,
+4.826666e-03,-8.857334e-01,,
+7.146666e-03,-8.765333e-01,,
+6.453333e-03,-8.697333e-01,,
+6.226666e-03,-8.582667e-01,,
+2.746667e-03,-8.673334e-01,,
+5.533333e-03,-8.697333e-01,,
+5.760000e-03,-8.810667e-01,,
+5.533333e-03,-8.468000e-01,,
+2.973333e-03,-8.788000e-01,,
+5.760000e-03,-8.720000e-01,,
+5.293333e-03,-8.697333e-01,,
+4.826666e-03,-8.650666e-01,,
+5.293333e-03,-8.673334e-01,,
+5.986666e-03,-8.490667e-01,,
+6.226666e-03,-8.673334e-01,,
+6.226666e-03,-8.560000e-01,,
+4.600000e-03,-8.536000e-01,,
+4.133333e-03,-8.560000e-01,,
+5.293333e-03,-8.513333e-01,,
+3.680000e-03,-8.376000e-01,,
+3.906666e-03,-8.560000e-01,,
+5.986666e-03,-8.605334e-01,,
+6.453333e-03,-8.490667e-01,,
+5.533333e-03,-8.468000e-01,,
+4.133333e-03,-8.490667e-01,,
+5.986666e-03,-8.536000e-01,,
+5.760000e-03,-8.560000e-01,,
+5.533333e-03,-8.330667e-01,,
+4.133333e-03,-8.445333e-01,,
+6.680000e-03,-8.353333e-01,,
+5.066666e-03,-8.376000e-01,,
+4.373333e-03,-8.400000e-01,,
+4.600000e-03,-8.330667e-01,,
+5.533333e-03,-8.376000e-01,,
+5.760000e-03,-8.353333e-01,,
+4.826666e-03,-8.330667e-01,,
+5.066666e-03,-8.216000e-01,,
+3.906666e-03,-8.262666e-01,,
+5.760000e-03,-8.285334e-01,,
+5.533333e-03,-8.170667e-01,,
+4.600000e-03,-8.238667e-01,,
+4.826666e-03,-8.238667e-01,,
+6.920000e-03,-8.170667e-01,,
+5.760000e-03,-8.033333e-01,,
+6.680000e-03,-7.988000e-01,,
+5.533333e-03,-8.056000e-01,,
+5.066666e-03,-8.216000e-01,,
+5.293333e-03,-8.101333e-01,,
+4.133333e-03,-8.193333e-01,,
+5.293333e-03,-8.262666e-01,,
+6.226666e-03,-8.056000e-01,,
+5.760000e-03,-7.918667e-01,,
+4.133333e-03,-7.965333e-01,,
+4.826666e-03,-7.965333e-01,,
+4.826666e-03,-7.918667e-01,,
+5.986666e-03,-7.850667e-01,,
+5.293333e-03,-7.941334e-01,,
+4.826666e-03,-7.941334e-01,,
+5.293333e-03,-8.010667e-01,,
+4.826666e-03,-7.758667e-01,,
+5.066666e-03,-7.850667e-01,,
+5.293333e-03,-7.918667e-01,,
+5.986666e-03,-7.804000e-01,,
+6.453333e-03,-7.896000e-01,,
+4.600000e-03,-7.941334e-01,,
+4.600000e-03,-7.758667e-01,,
+5.760000e-03,-7.804000e-01,,
+3.680000e-03,-7.690667e-01,,
+4.600000e-03,-7.781333e-01,,
+5.293333e-03,-7.598667e-01,,
+5.066666e-03,-7.781333e-01,,
+7.386666e-03,-7.668000e-01,,
+5.986666e-03,-7.690667e-01,,
+5.760000e-03,-7.644000e-01,,
+5.293333e-03,-7.713333e-01,,
+5.066666e-03,-7.438667e-01,,
+4.600000e-03,-7.553334e-01,,
+5.986666e-03,-7.530667e-01,,
+5.760000e-03,-7.506667e-01,,
+4.826666e-03,-7.506667e-01,,
+5.066666e-03,-7.553334e-01,,
+6.226666e-03,-7.484000e-01,,
+6.680000e-03,-7.598667e-01,,
+5.986666e-03,-7.438667e-01,,
+4.826666e-03,-7.576000e-01,,
+7.146666e-03,-7.393333e-01,,
+4.826666e-03,-7.369334e-01,,
+4.826666e-03,-7.393333e-01,,
+4.600000e-03,-7.416000e-01,,
+5.293333e-03,-7.369334e-01,,
+5.533333e-03,-7.393333e-01,,
+5.533333e-03,-7.324000e-01,,
+5.066666e-03,-7.461333e-01,,
+5.533333e-03,-7.369334e-01,,
+7.146666e-03,-7.324000e-01,,
+5.533333e-03,-7.209333e-01,,
+5.066666e-03,-7.278666e-01,,
+6.226666e-03,-7.186667e-01,,
+4.826666e-03,-7.186667e-01,,
+5.986666e-03,-7.256000e-01,,
+3.906666e-03,-7.096000e-01,,
+5.533333e-03,-7.026667e-01,,
+6.920000e-03,-7.278666e-01,,
+6.226666e-03,-7.026667e-01,,
+4.826666e-03,-7.118667e-01,,
+5.986666e-03,-6.958667e-01,,
+3.440000e-03,-7.026667e-01,,
+5.293333e-03,-7.004000e-01,,
+4.600000e-03,-6.912000e-01,,
+5.066666e-03,-6.844000e-01,,
+5.293333e-03,-7.004000e-01,,
+3.680000e-03,-6.798667e-01,,
+3.906666e-03,-7.026667e-01,,
+5.066666e-03,-6.912000e-01,,
+5.533333e-03,-6.798667e-01,,
+4.826666e-03,-6.661333e-01,,
+4.826666e-03,-6.844000e-01,,
+5.760000e-03,-6.752000e-01,,
+4.826666e-03,-6.684000e-01,,
+7.146666e-03,-6.569334e-01,,
+5.986666e-03,-6.661333e-01,,
+4.826666e-03,-6.684000e-01,,
+5.066666e-03,-6.798667e-01,,
+6.226666e-03,-6.614667e-01,,
+4.600000e-03,-6.729333e-01,,
+4.826666e-03,-6.569334e-01,,
+5.760000e-03,-6.661333e-01,,
+5.293333e-03,-6.386667e-01,,
+4.600000e-03,-6.661333e-01,,
+4.826666e-03,-6.569334e-01,,
+5.293333e-03,-6.477333e-01,,
+5.533333e-03,-6.317334e-01,,
+6.920000e-03,-6.364000e-01,,
+5.986666e-03,-6.432000e-01,,
+4.600000e-03,-6.477333e-01,,
+5.760000e-03,-6.317334e-01,,
+4.373333e-03,-6.340000e-01,,
+6.453333e-03,-6.432000e-01,,
+6.226666e-03,-6.364000e-01,,
+4.373333e-03,-6.340000e-01,,
+4.133333e-03,-6.294667e-01,,
+5.533333e-03,-6.272000e-01,,
+5.760000e-03,-6.249334e-01,,
+6.680000e-03,-6.020000e-01,,
+5.066666e-03,-6.340000e-01,,
+5.760000e-03,-6.112000e-01,,
+6.920000e-03,-6.066667e-01,,
+6.453333e-03,-6.112000e-01,,
+5.066666e-03,-6.089333e-01,,
+6.226666e-03,-5.974666e-01,,
+5.293333e-03,-6.157333e-01,,
+4.826666e-03,-5.837333e-01,,
+6.226666e-03,-6.042667e-01,,
+6.680000e-03,-6.042667e-01,,
+5.533333e-03,-5.997334e-01,,
+5.986666e-03,-5.860000e-01,,
+4.600000e-03,-5.882667e-01,,
+5.293333e-03,-5.882667e-01,,
+5.066666e-03,-5.882667e-01,,
+4.826666e-03,-5.654667e-01,,
+5.066666e-03,-5.792000e-01,,
+5.066666e-03,-5.677333e-01,,
+5.760000e-03,-5.745333e-01,,
+4.826666e-03,-5.608000e-01,,
+4.826666e-03,-5.722667e-01,,
+4.826666e-03,-5.494667e-01,,
+6.226666e-03,-5.792000e-01,,
+5.986666e-03,-5.562667e-01,,
+4.826666e-03,-5.562667e-01,,
+5.293333e-03,-5.562667e-01,,
+5.066666e-03,-5.517333e-01,,
+4.133333e-03,-5.402667e-01,,
+3.213333e-03,-5.494667e-01,,
+5.066666e-03,-5.380000e-01,,
+3.906666e-03,-5.425333e-01,,
+5.066666e-03,-5.334667e-01,,
+5.066666e-03,-5.357333e-01,,
+6.226666e-03,-5.334667e-01,,
+5.066666e-03,-5.197333e-01,,
+4.826666e-03,-5.242667e-01,,
+4.600000e-03,-5.310667e-01,,
+5.533333e-03,-5.150667e-01,,
+4.826666e-03,-5.310667e-01,,
+5.986666e-03,-5.150667e-01,,
+5.066666e-03,-5.220000e-01,,
+6.226666e-03,-5.105333e-01,,
+4.373333e-03,-5.197333e-01,,
+4.373333e-03,-5.060000e-01,,
+4.133333e-03,-4.900000e-01,,
+5.986666e-03,-4.990667e-01,,
+4.600000e-03,-5.013334e-01,,
+4.600000e-03,-4.900000e-01,,
+3.906666e-03,-4.968000e-01,,
+3.906666e-03,-4.716000e-01,,
+6.226666e-03,-5.013334e-01,,
+5.066666e-03,-4.876000e-01,,
+5.760000e-03,-4.785333e-01,,
+5.760000e-03,-4.968000e-01,,
+6.226666e-03,-4.762667e-01,,
+5.986666e-03,-4.648000e-01,,
+3.906666e-03,-4.808000e-01,,
+5.533333e-03,-4.693334e-01,,
+4.373333e-03,-4.693334e-01,,
+4.826666e-03,-4.716000e-01,,
+4.373333e-03,-4.602667e-01,,
+5.293333e-03,-4.670667e-01,,
+5.293333e-03,-4.578667e-01,,
+6.680000e-03,-4.510667e-01,,
+3.440000e-03,-4.441333e-01,,
+5.760000e-03,-4.465334e-01,,
+6.226666e-03,-4.625333e-01,,
+5.293333e-03,-4.441333e-01,,
+4.373333e-03,-4.418667e-01,,
+4.826666e-03,-4.350667e-01,,
+6.453333e-03,-4.350667e-01,,
+6.680000e-03,-4.350667e-01,,
+5.293333e-03,-4.281333e-01,,
+5.986666e-03,-4.305333e-01,,
+5.066666e-03,-4.213333e-01,,
+5.533333e-03,-4.121333e-01,,
+4.373333e-03,-4.258667e-01,,
+3.906666e-03,-4.144000e-01,,
+5.293333e-03,-4.305333e-01,,
+5.760000e-03,-4.008000e-01,,
+3.440000e-03,-4.098667e-01,,
+4.826666e-03,-4.030667e-01,,
+5.533333e-03,-4.053333e-01,,
+3.906666e-03,-3.893333e-01,,
+3.440000e-03,-4.008000e-01,,
+5.986666e-03,-4.190667e-01,,
+3.906666e-03,-3.870667e-01,,
+5.293333e-03,-3.686667e-01,,
+4.133333e-03,-3.824000e-01,,
+4.826666e-03,-3.801333e-01,,
+4.373333e-03,-3.870667e-01,,
+4.826666e-03,-3.709333e-01,,
+3.680000e-03,-3.778667e-01,,
+5.293333e-03,-3.686667e-01,,
+4.826666e-03,-3.756000e-01,,
+3.213333e-03,-3.526667e-01,,
+3.906666e-03,-3.756000e-01,,
+5.066666e-03,-3.686667e-01,,
+5.066666e-03,-3.618667e-01,,
+5.533333e-03,-3.526667e-01,,
+3.440000e-03,-3.549334e-01,,
+4.133333e-03,-3.526667e-01,,
+4.826666e-03,-3.641333e-01,,
+5.533333e-03,-3.573333e-01,,
+4.133333e-03,-3.366667e-01,,
+4.133333e-03,-3.481333e-01,,
+4.600000e-03,-3.436000e-01,,
+4.133333e-03,-3.229333e-01,,
+4.826666e-03,-3.298667e-01,,
+5.986666e-03,-3.206667e-01,,
+5.293333e-03,-3.206667e-01,,
+4.133333e-03,-3.252000e-01,,
+6.453333e-03,-3.206667e-01,,
+4.373333e-03,-3.276000e-01,,
+5.760000e-03,-3.252000e-01,,
+2.746667e-03,-3.161334e-01,,
+4.600000e-03,-3.046667e-01,,
+4.373333e-03,-3.114667e-01,,
+4.373333e-03,-2.932000e-01,,
+4.373333e-03,-3.092000e-01,,
+4.133333e-03,-2.864000e-01,,
+4.373333e-03,-3.092000e-01,,
+5.293333e-03,-3.001333e-01,,
+4.826666e-03,-2.932000e-01,,
+4.600000e-03,-2.772000e-01,,
+4.826666e-03,-2.680000e-01,,
+5.293333e-03,-2.772000e-01,,
+3.906666e-03,-2.749333e-01,,
+3.680000e-03,-2.657333e-01,,
+4.826666e-03,-2.634667e-01,,
+5.066666e-03,-2.794667e-01,,
+3.680000e-03,-2.634667e-01,,
+4.373333e-03,-2.749333e-01,,
+4.826666e-03,-2.612000e-01,,
+3.680000e-03,-2.657333e-01,,
+5.760000e-03,-2.406667e-01,,
+3.906666e-03,-2.497333e-01,,
+5.293333e-03,-2.474667e-01,,
+3.440000e-03,-2.520000e-01,,
+4.826666e-03,-2.337333e-01,,
+4.133333e-03,-2.406667e-01,,
+5.533333e-03,-2.177333e-01,,
+4.600000e-03,-2.406667e-01,,
+4.826666e-03,-1.994667e-01,,
+3.440000e-03,-2.222667e-01,,
+5.293333e-03,-2.245333e-01,,
+3.440000e-03,-2.269333e-01,,
+3.680000e-03,-2.040000e-01,,
+2.746667e-03,-2.154667e-01,,
+5.066666e-03,-1.994667e-01,,
+3.906666e-03,-2.040000e-01,,
+5.533333e-03,-1.925333e-01,,
+2.973333e-03,-1.880000e-01,,
+4.826666e-03,-1.994667e-01,,
+4.600000e-03,-2.085333e-01,,
+4.600000e-03,-1.765333e-01,,
+4.133333e-03,-1.880000e-01,,
+4.373333e-03,-1.925333e-01,,
+5.293333e-03,-1.857333e-01,,
+4.826666e-03,-1.674667e-01,,
+2.973333e-03,-1.765333e-01,,
+3.213333e-03,-1.697333e-01,,
+4.133333e-03,-1.697333e-01,,
+6.226666e-03,-1.582667e-01,,
+3.680000e-03,-1.742667e-01,,
+5.066666e-03,-1.605333e-01,,
+4.133333e-03,-1.650667e-01,,
+4.373333e-03,-1.445333e-01,,
+4.600000e-03,-1.628000e-01,,
+5.760000e-03,-1.400000e-01,,
+4.133333e-03,-1.400000e-01,,
+4.826666e-03,-1.240000e-01,,
+4.133333e-03,-1.330667e-01,,
+4.600000e-03,-1.422667e-01,,
+5.293333e-03,-1.330667e-01,,
+3.906666e-03,-1.240000e-01,,
+4.133333e-03,-1.308000e-01,,
+5.066666e-03,-1.262667e-01,,
+4.133333e-03,-1.285333e-01,,
+4.600000e-03,-1.010667e-01,,
+5.293333e-03,-1.193333e-01,,
+5.760000e-03,-8.960000e-02,,
+4.600000e-03,-1.262667e-01,,
+5.293333e-03,-1.056000e-01,,
+4.373333e-03,-1.080000e-01,,
+5.066666e-03,-9.186666e-02,,
+3.680000e-03,-1.056000e-01,,
+5.533333e-03,-7.813334e-02,,
+3.440000e-03,-1.033333e-01,,
+5.760000e-03,-8.506667e-02,,
+4.600000e-03,-9.880000e-02,,
+4.826666e-03,-6.906667e-02,,
+4.600000e-03,-7.586667e-02,,
+4.826666e-03,-6.213333e-02,,
+5.293333e-03,-8.506667e-02,,
+5.986666e-03,-5.760000e-02,,
+5.986666e-03,-7.360000e-02,,
+5.293333e-03,-5.760000e-02,,
+4.133333e-03,-7.133333e-02,,
+5.533333e-03,-4.840000e-02,,
+3.440000e-03,-6.453333e-02,,
+4.826666e-03,-5.760000e-02,,
+5.293333e-03,-5.080000e-02,,
+4.373333e-03,-3.933333e-02,,
+4.133333e-03,-4.613334e-02,,
+2.973333e-03,-3.706667e-02,,
+3.906666e-03,-3.706667e-02,,
+3.680000e-03,-2.560000e-02,,
+3.440000e-03,-2.106667e-02,,
+5.293333e-03,-2.560000e-02,,
+3.906666e-03,-3.013333e-02,,
+3.213333e-03,-9.600000e-03,,
+3.213333e-03,-3.240000e-02,,
+3.906666e-03,-1.413333e-02,,
+3.906666e-03,-1.866667e-02,,
+3.906666e-03,+1.866667e-03,,
+2.973333e-03,-4.000000e-04,,
+4.133333e-03,-7.333334e-03,,
+4.133333e-03,+8.666667e-03,,
+3.440000e-03,+4.133333e-03,,
+3.213333e-03,+1.333333e-02,,
+3.680000e-03,+1.560000e-02,,
+3.906666e-03,+6.400000e-03,,
+3.680000e-03,+1.333333e-02,,
+3.213333e-03,+2.013333e-02,,
